<<widget "chefspeechoptions">><<nobr>>

<<link [[Socialise with local elites|Chef Opening Local]]>><<pass 240>><<if $chef_speech is "refuse">><<famesocial 100>><</if>><<famebusiness 50>><</link>>
<br>
<<link [[Socialise with foreign visitors|Chef Opening Foreign]]>><<pass 240>><<if $chef_speech is "refuse">><<famebusiness 50>><<famesocial 50>><</if>><<famebusiness 50>><</link>>
<br>
<<link [[Chat with staff|Chef Opening Staff]]>><<pass 240>><<trauma -18>><<stress -6>><</link>><<lltrauma>><<lstress>>
<br>
<<link [[Just enjoy yourself|Chef Opening Enjoy]]>><<pass 240>><<stress -18>><<trauma -6>><</link>><<llstress>><<ltrauma>>
<br>

<</nobr>><</widget>>

<<widget "cafecoffeesip">><<nobr>>
	<<stress -1>><<lstress>>
	<<set $coffee_sips -= 1>>
<</nobr>><</widget>>