<<set $outside to 0>><<set $location to "town">><<effects>>

You ignore the beast and turn back to the door.
<br><br>

<<link [[Break in|Domus House Lock]]>><</link>>
<br>
<<link [[Go to the Next House (0:02)|Domus House Knock]]>><<pass 2>><</link>>
<br>
<<link [[Stop|Domus Street]]>><</link>>
<br>