<<if $molestationstart is 1>>
	<<set $molestationstart to 0>>
	<<controlloss>>
	<<violence 1>>
	<<neutral 1>>
	<<molested>>
	<<maninit>>
	<<if $robinbed is 1>>
		<<set $rescue to 1>>
	<</if>>
<</if>>
<<effects>>
<<effectsman>><<man>>
<<if $alarm is 1 and $rescue isnot 1>>
	<<set $alarm to 0>>
	"Be quiet," Bailey says. "You're paying what you owe, one way or another."
	<br><br>
<</if>>
<<stateman>>
<br><br>
<<actionsman>>
<<if $alarm is 1 and $rescue is 1>>
	<span id="next"><<link [[Next|Sleep Rape Finish]]>><</link>></span><<nexttext>>
<<elseif $enemyhealth lte 0>>
	<span id="next"><<link [[Next|Sleep Rape Finish]]>><</link>></span><<nexttext>>
<<elseif $enemyarousal gte $enemyarousalmax>>
	<span id="next"><<link [[Next|Sleep Rape Finish]]>><</link>></span><<nexttext>>
<<else>>
	<span id="next"><<link [[Next|Sleep Rape]]>><</link>></span><<nexttext>>
<</if>>