<<if $sexstart is 1>>
<<set $sexstart to 0>>
<<consensual>>
<<set $consensual to 1>>
<<neutral 1>>

<<maninit>>
<<if $phase lte 0>>
<<set $enemytrust += 100>>
<</if>><<set $enemyarousal += 400>>

<<elseif $molestationstart is 1>>
<<set $molestationstart to 0>>
<<controlloss>>
<<violence 1>>
<<neutral 1>>
<<molested>>

<<maninit>>

<</if>>

<<effects>>
<<effectsman>><<man>>

<<stateman>>
<br><br>
<<actionsman>>

<<if $enemyarousal lt $enemyarousalmax and $enemyhealth gt 0 and $finish isnot 1>>
	<span id="next"><<link [[Next|Pub Sex 3]]>><</link>></span><<nexttext>>
<<else>>
	<span id="next"><<link [[Next|Pub Sex 3 Finish]]>><</link>></span><<nexttext>>
<</if>>