<<if $sexstart is 1>>
	<<set $sexstart to 0>>
	<<consensual>>
	<<set $consensual to 1>>
	<<neutral 1>>
	<<maninit>>
	<<promiscuity3>>
<<elseif $molestationstart is 1>>
	<<set $molestationstart to 0>>
	<<controlloss>>
	<<violence 1>>
	<<neutral 1>>
	<<molested>>
	<<maninit>>
<</if>>

<<effects>>
<<effectsman>><<man>>
<<stateman>>
<br><br>
<<actionsman>>
<<if $finish is 1>>
	<span id="next"><<link [[Next|Shady Fan Sex Finish]]>><</link>></span><<nexttext>>
<<elseif $enemyhealth lte 0>>
	<span id="next"><<link [[Next|Shady Fan Sex Finish]]>><</link>></span><<nexttext>>
<<elseif $enemyarousal gte $enemyarousalmax>>
	<span id="next"><<link [[Next|Shady Fan Sex Finish]]>><</link>></span><<nexttext>>
<<else>>
	<span id="next"><<link [[Next|Shady Fan Sex]]>><</link>></span><<nexttext>>
<</if>>