<<widget "domus">><<nobr>>

<<add_link "<<domusicon>><<link [[Domus Street (0:05) (Home)|Domus Street]]>><<pass 5>><</link>><br>">>
<<hideDisplay true>>
<</nobr>><</widget>>

<<widget "domusquick">><<nobr>>

<<link [[Domus Street|Domus Street]]>><</link>>

<</nobr>><</widget>>

<<widget "domuseventend">><<nobr>>

<<link [[Next|Domus Street]]>><<set $eventskip to 1>><</link>>

<</nobr>><</widget>>