<<if $sexstart is 1>>
	<<set $sexstart to 0>>
	<<consensual>>
	<<set $consensual to 1>>
	<<neutral 1>>

	<<maninit>>
	<<set $enemytrust += 500>><<npckiss>><<npcexpose>><<set $speechdisable to 1>>
	<<set $enemyarousalmax to 600>>
<</if>>

<<set $enemyanger to 0>>
<<effects>>
<<effectsman>><<man>>

<<stateman>>
<br><br>
<<actionsman>>

<<if $finish is 1>>
	<span id="next"><<link [[Next|Bed Robin Sex Finish]]>><</link>></span><<nexttext>>
<<elseif $enemyhealth lte 0>>
	<span id="next"><<link [[Next|Bed Robin Sex Finish]]>><</link>></span><<nexttext>>
<<elseif $enemyarousal gte $enemyarousalmax>>
	<span id="next"><<link [[Next|Bed Robin Sex Finish]]>><</link>></span><<nexttext>>
<<else>>
	<span id="next"><<link [[Next|Bed Robin Sex]]>><</link>></span><<nexttext>>
<</if>>