<<if $fightstart is 1>>
	<<set $fightstart to 0>>
	<<neutral 1>>
	<<maninit>>
	<<set $enemytrust -= 100>>
	<<set $enemyanger += 200>>
	<<npcidlegenitals>>
<</if>>
<<effects>>
<<effectsman>><<man>>
<<stateman>>
<br><br>
<<actionsman>>
<<if $enemyhealth lte 0>>
	<span id="next"><<link [[Next|Bully Rob Fight Finish]]>><</link>></span><<nexttext>>
<<elseif $enemyarousal gte $enemyarousalmax>>
	<span id="next"><<link [[Next|Bully Rob Fight Finish]]>><</link>></span><<nexttext>>
<<elseif $pain gte 100 and $willpowerpain is 0>>
	<span id="next"><<link [[Next|Bully Rob Fight Finish]]>><</link>></span><<nexttext>>
<<else>>
	<span id="next"><<link [[Next|Bully Rob Fail]]>><</link>></span><<nexttext>>
<</if>>