<<widget "dancespeech">><<nobr>>
<<set $rng to random(1, 100)>>
<<if $audience is 1>>
	<<person1>><<He>> shouts.
<<elseif $audience is 2>>
	<<if $rng gte 51>>
	The <<person1>><<person>> shouts.
	<<else>>
	The <<person2>><<person>> shouts.
	<</if>>
<<elseif $audience is 3>>
	<<if $rng gte 71>>
		The <<person1>><<person>> shouts.
	<<elseif $rng gte 41>>
		The <<person2>><<person>> shouts.
	<<else>>
		The <<person3>><<person>> shouts.
	<</if>>
<<elseif $audience gte 4>>
	<<if $rng gte 71>>
		A <<person1>><<person>> shouts.
	<<elseif $rng gte 36>>
		A <<person2>><<person>> shouts.
	<<else>>
		A <<person3>><<person>> shouts.
	<</if>>
<</if>>

<<if $dancespeechselector is 1>>
	<<set $dancespeechselector to 2>>
<<elseif $dancespeechselector is 2>>
	<<set $dancespeechselector to 3>>
<<else>>
	<<set $dancespeechselector to 1>>
<</if>>

<<if $audience isnot 0>>
<<set $rng to random(1, 100)>>
	<<if $dancespeech is "hermangry">>
		<<if $rng gte 76>>
			"<<pShes>> a freak!"
		<<elseif $rng gte 51>>
			"I shouldn't have thrown that. They charge a lot for drinks."
		<<elseif $rng gte 26>>
			"I wasn't expecting a freak show. Nice."
		<<else>>
			"Do you think anyone would care if we raped it?"
		<</if>>
	<<elseif $dancespeech is "hermaroused">>
		<<if $rng gte 76>>
			"Both a cock and pussy? That's hot."
		<<elseif $rng gte 51>>
			"I never thought I'd see a hermaphrodite. I don't think I can hold back."
		<<elseif $rng gte 26>>
			"I want to fuck <<pher>> cock and pussy both."
		<<else>>
			"Both! No one will believe me."
		<</if>>	
	<<elseif $dancespeech is "hermshock">>
		<<if $rng gte 76>>
			"I wasn't expecting both a cock and pussy."
		<<elseif $rng gte 51>>
			"<<pShes>> still cute, but that's just weird."
		<<elseif $rng gte 26>>
			"I wasn't expecting something so exotic."
		<<else>>
			"Fuck. I don't know where to look."
		<</if>>	
	<<elseif $dancespeech is "hermdisappointed">>
		<<if $rng gte 76>>
			"I thought <<pshe>> was normal."
		<<elseif $rng gte 51>>
			"Still cute, I guess."
		<<elseif $rng gte 26>>
			"Never seen a cock and pussy on one person before. Dunno what to think."
		<<else>>
			"This might be too exotic for me."
		<</if>>	
	<<elseif $dancespeech is "crossdressangry">>
		<<if $rng gte 76>>
			"Fucking crossdressing pervert."
		<<elseif $rng gte 51>>
			"I bet you're real happy you tricked us."
		<<elseif $rng gte 26>>
			"I'd throw more, but the drinks are expensive."
		<<else>>
			"Anyone else up for punishing this crossdressing slut?"
		<</if>>	
	<<elseif $dancespeech is "crossdressaroused">>
		<<if $rng gte 76>>
			<<if $penisexist is 1>>
				"The cock makes it better."
			<<else>>
				"The pussy makes it better."
			<</if>>
		<<elseif $rng gte 51>>
			<<if $penisexist is 1>>
				"Surprise cock is the best."
			<<else>>
				"Surprise pussy is the best."
			<</if>>
		<<elseif $rng gte 26>>
			"I was fooled. So hot."
		<<else>>
			"Best reveal ever."
		<</if>>	
	<<elseif $dancespeech is "crossdressshock">>
		<<if $rng gte 76>>
			"I wasn't expecting that."
		<<elseif $rng gte 51>>
			"I need to lie down."
		<<elseif $rng gte 26>>
			"I was completely fooled."
		<<else>>
			<<if $penisexist is 1>>
				"A penis? No way."
			<<else>>
				"A pussy? No way."
			<</if>>
		<</if>>	
	<<elseif $dancespeech is "crossdressdisappointed">>
		<<if $rng gte 76>>
			"This isn't what I'm normally into. Still cute though."
		<<elseif $rng gte 51>>
			<<if $penisexist is 1>>
				"Dunno what to make of that cock."
			<<else>>
				"Dunno what to make of that pussy."
			<</if>>
		<<elseif $rng gte 26>>
			"I was hoping for something else. It's okay I guess."
		<<else>>
			"Not what I was expecting."
		<</if>>	
	<<elseif $dancespeechselector is 1>>
		<<set $rng to random(1, 100)>>
		<<if $dancespeech is "cop">>
			<<if $rng gte 76>>
				"I bet you love being groped."
			<<elseif $rng gte 51>>
				"Aww, I think <<pshes>> shy."
			<<elseif $rng gte 26>>
				"You can't display yourself like this without people wanting a taste."
			<<else>>
				"You like being fondled, don't you."
			<</if>>
		<<elseif $dancespeech is "cum">>
			<<if $rng gte 76>>
				"<<pShe>> must be a right slut to cum on stage like that."
			<<elseif $rng gte 51>>
				"Did <<pshe>> really just cum?"
			<<elseif $rng gte 26>>
				"Seeing lewd <<girls>> orgasm is so much better in person."
			<<else>>
				"I bet you got another orgasm in you."
			<</if>>
		<<elseif $dancespeech is "struggle">>
			<<if $rng gte 76>>
				"I love it when they struggle."
			<<elseif $rng gte 51>>
				"Come on! Take it off!"
			<<elseif $rng gte 26>>
				"Hurry up and strip, I don't have all day."
			<<else>>
				"Don't be a tease, let's see some skin."
			<</if>>
		<<elseif $dancespeech is "strip">>
			<<if $rng gte 76>>
				"I bet you wish you had something to cover up with."
			<<elseif $rng gte 51>>
				"<<pShe>> looks better with less clothes."
			<<elseif $rng gte 26>>
				"You must be a massive perv to strip in front of strangers."
			<<else>>
				"Getting stripped on stage, you have no dignity."
			<</if>>
		<<elseif $dancespeech is "dance">>
			<<if $danceskill gte 800>>
				<<if $rng gte 76>>
					"This <<girl>> can really move."
				<<elseif $rng gte 51>>
					"<<pShe>> really knows how to show it all off."
				<<elseif $rng gte 26>>
					"You're a fantastic dancer."
				<<else>>
					"Think <<pshe>> fucks as well as <<pshe>> dances?"
				<</if>>
			<<elseif $danceskill gte 400>>
				<<if $rng gte 76>>
					"You'd almost be worth watching even if you weren't hot."
				<<elseif $rng gte 51>>
					"This <<girl>> ain't a bad dancer."
				<<elseif $rng gte 26>>
					"Love watching these sluts shake their assets around."
				<<else>>
					"I bet <<pshes>> loving the attention."
				<</if>>
			<<elseif $danceskill gte 200>>
				<<if $rng gte 76>>
					"You can keep to a rhythm, at least."
				<<elseif $rng gte 51>>
					"<<pHer>> dancing is so boring."
				<<elseif $rng gte 26>>
					"Stop dancing and do something lewd."
				<<else>>
					"You can't really dance <<bitchstop>> You might be an acceptable fucktoy."
				<</if>>
			<<else>>
				<<if $rng gte 76>>
					"I could do a better job than this <<bitchstop>> I have some dignity though."
				<<elseif $rng gte 51>>
					"Where'd this slut learn to dance? The zoo?"
				<<elseif $rng gte 26>>
					"They must let anyone up there."
				<<else>>
					"You'd be pretty hot if it weren't for the awful dancing."
				<</if>>
			<</if>>
		<<else>>
			<<if $rng gte 76>>
				"You must be a right slut to get up on stage like that."
			<<elseif $rng gte 51>>
				"You're pretty hot <<girlcomma>> but I bet you know that."
			<<elseif $rng gte 26>>
				"I think this <<bitch>> is in need of a good seeing to."
			<<else>>
				"Do something naughty."
			<</if>>
		<</if>>
	<<elseif $dancespeechselector is 2>>
		<<set $rng to random(1, 100)>>
		<<if $rng gte 51>>
			<<if $worn.upper.type.includes("naked")>>
				<<if $breastsize lte 0>>
					<<if $player.gender_appearance is "m">>
						<<set $rng to random(1, 100)>>
						<<if $rng gte 76>>
							"Imagine that sleek chest being fondled from all angles."
						<<elseif $rng gte 51>>
							"I wanna lick the sweat off his chest."
						<<elseif $rng gte 26>>
							"He must like being exposed in front of a crowd."
						<<else>>
							"I bet you love having your nipples toyed with."
						<</if>>
					<<else>>
						<<set $rng to random(1, 100)>>
						<<if $rng gte 76>>
							"Your chest is so sleek, I'd think you a boy if I didn't know better."
							<<insecurity "breasts_tiny" 1>><<ginsecurity "breasts_tiny">>
						<<elseif $rng gte 51>>
							"Small tits are delicious."
							<<insecurity "breasts_tiny" 1>><<ginsecurity "breasts_tiny">>
						<<elseif $rng gte 26>>
							"Such small boobs must make dancing easier."
							<<insecurity "breasts_tiny" 1>><<ginsecurity "breasts_tiny">>
						<<else>>
							"I bet you love having your nipples toyed with."
						<</if>>
					<</if>>
				<<elseif $breastsize lte 5>>
					<<set $rng to random(1, 100)>>
					<<if $rng gte 76>>
						"Nice tits."
					<<elseif $rng gte 51>>
						"Those are some nicely shaped breasts. A bit small though."
						<<insecurity "breasts_small" 1>><<ginsecurity "breasts_small">>
					<<elseif $rng gte 26>>
						"<<pHer>> small tits really add to the dance."
						<<insecurity "breasts_small" 1>><<ginsecurity "breasts_small">>
					<<else>>
						"<<pShes>> so confident, exposing <<pher>> small breasts like that."
						<<insecurity "breasts_small" 1>><<ginsecurity "breasts_small">>
					<</if>>
				<<elseif $breastsize lte 7>>
					<<set $rng to random(1, 100)>>
					<<if $rng gte 76>>
						"I wonder what those breasts feel like."
						<<if $player.gender is "m">><<insecurity "breasts_big" 1>><<ginsecurity "breasts_big">><</if>>
					<<elseif $rng gte 51>>
						"I bet your tits make great pillows."
						<<if $player.gender is "m">><<insecurity "breasts_big" 1>><<ginsecurity "breasts_big">><</if>>
					<<elseif $rng gte 26>>
						"You're such a slut, shaking your tits around like this."
						<<if $player.gender is "m">><<insecurity "breasts_big" 1>><<ginsecurity "breasts_big">><</if>>
					<<else>>
						"I bet your tits taste wonderful."
						<<if $player.gender is "m">><<insecurity "breasts_big" 1>><<ginsecurity "breasts_big">><</if>>
					<</if>>
				<<else>>
					<<set $rng to random(1, 100)>>
					<<if $rng gte 76>>
						"Shake those udders!"
						<<insecurity "breasts_big" 1>><<ginsecurity "breasts_big">>
					<<elseif $rng gte 51>>
						"Dancing with tits that big must be difficult."
						<<insecurity "breasts_big" 1>><<ginsecurity "breasts_big">>
					<<elseif $rng gte 26>>
						"Those huge tits are mesmerising."
						<<insecurity "breasts_big" 1>><<ginsecurity "breasts_big">>
					<<else>>
						"Those breasts were made to be shown off."
						<<insecurity "breasts_big" 1>><<ginsecurity "breasts_big">>
					<</if>>
				<</if>>
			<<else>>
				<<set $rng to random(1, 100)>>
				<<if $rng gte 76>>
					"Take your $worn.upper.name off, <<girls>> like you don't need clothes anyway."
				<<elseif $rng gte 51>>
					"Let's see some more skin."
				<<elseif $rng gte 26>>
					"Are you some sort of prude? Take your $worn.upper.name off."
				<<else>>
					"Strip your $worn.upper.name, I wanna see your chest."
				<</if>>
			<</if>>
		<<elseif $rng gte 1>>
			<<if $worn.lower.type.includes("naked")>>
				<<if $worn.under_lower.type.includes("naked") and !$worn.genitals.type.includes("chastity")>>
					<<if $penisexist is 1 and $vaginaexist is 1 and random(1, 2) is 2>>
						<<set $rng to random(1, 10)>>
						<<switch $rng>>
						<<case 1>>
							"Hermaphrodite freaks like <<phim>> should be sex slaves."
						<<case 2>>
							"I didn't know hermaphrodites were real."
						<<case 3>>
							"I bet <<pshe>> loves flaunting <<pher>> penis and pussy."
						<<case 4>>
							"Two lickable sets of genitals."
						<<case 5>>
							"Both? I bet <<pshe>> can charge extra."
						<<case 6>>
							"I wonder if <<pshes>> ever used both cock and pussy at the same time."
						<<case 7>>
							"Both a pussy and cock? I'm glad I didn't miss this."
						<<case 8>>
							"I don't know if I want to taste <<pher>> cock or pussy more.
						<<case 9>>
							"I thought hermaphrodites were a myth."
						<<default>>
							"Do you think <<pshe>> was born with both genitals?"
						<</switch>>
					<<elseif $penisexist is 1>>
						<<set $rng to random(1, 100)>>
						<<if $penissize gte 4>>
							<<if $rng gte 76>>
								"Look at <<pher>> gigantic penis flop around!"
								<<insecurity "penis_big" 1>><<ginsecurity "penis_big">>
							<<elseif $rng gte 51>>
								"<<pHer>> penis is so big. I can't look away."
								<<insecurity "penis_big" 1>><<ginsecurity "penis_big">>
							<<elseif $rng gte 26>>
								"I want to suck that <<peniscomma>> but I don't think it would fit."
								<<insecurity "penis_big" 1>><<ginsecurity "penis_big">>
							<<else>>
								"I bet you love showing off your <<penisstop>>"
								<<insecurity "penis_big" 1>><<ginsecurity "penis_big">>
							<</if>>
						<<elseif $penissize is 3>>
							<<if $rng gte 76>>
								"Look at <<pher>> <<penis>> flop around!"
								<<if $player.gender is "h">><<insecurity "penis_big" 1>><<ginsecurity "penis_big">><</if>>
							<<elseif $rng gte 51>>
								"What's it like having your <<penis>> out in front of all these strangers?"
								<<if $player.gender is "h">><<insecurity "penis_big" 1>><<ginsecurity "penis_big">><</if>>
							<<elseif $rng gte 26>>
								"Your <<penis>> is so cute. I want to taste it."
								<<if $player.gender is "h">><<insecurity "penis_big" 1>><<ginsecurity "penis_big">><</if>>
							<<else>>
								"I bet you love having your <<penis>> ogled."
								<<if $player.gender is "h">><<insecurity "penis_big" 1>><<ginsecurity "penis_big">><</if>>
							<</if>>
						<<elseif $penissize is 2>>
							<<if $rng gte 76>>
								"Look at <<pher>> <<penis>> flop around!"
							<<elseif $rng gte 51>>
								"What's it like having your <<penis>> out in front of all these strangers?"
							<<elseif $rng gte 26>>
								"You've such a cute <<peniscomma>> I want to taste it."
							<<else>>
								"I bet you love having your <<penis>> ogled."
							<</if>>
						<<elseif $penissize is 1>>
							<<if $rng gte 76>>
								"<<pHer>> penis is so small!"
								<<insecurity "penis_small" 1>><<ginsecurity "penis_small">>
							<<elseif $rng gte 51>>
								"What's it like having your <<penis>> out in front of all these strangers?"
								<<insecurity "penis_small" 1>><<ginsecurity "penis_small">>
							<<elseif $rng gte 26>>
								"You've such a cute <<peniscomma>> I want to taste it."
								<<insecurity "penis_small" 1>><<ginsecurity "penis_small">>
							<<else>>
								"I bet you love having your <<penis>> ogled."
								<<insecurity "penis_small" 1>><<ginsecurity "penis_small">>
							<</if>>
						<<else>>
							<<if $rng gte 76>>
								"<<pHer>> penis is so tiny!"
								<<insecurity "penis_tiny" 1>><<ginsecurity "penis_tiny">>
							<<elseif $rng gte 51>>
								"What's it like having your <<penis>> out in front of all these strangers?"
								<<insecurity "penis_tiny" 1>><<ginsecurity "penis_tiny">>
							<<elseif $rng gte 26>>
								"I've never seen such a tiny cock."
								<<insecurity "penis_tiny" 1>><<ginsecurity "penis_tiny">>
							<<else>>
								"I bet you love having your <<penis>> ogled."
								<<insecurity "penis_tiny" 1>><<ginsecurity "penis_tiny">>
							<</if>>
						<</if>>
					<<else>>
						<<set $rng to random(1, 100)>>
						<<if $rng gte 76>>
							"You love showing off your <<pussycomma>> don't you."
						<<elseif $rng gte 51>>
							"What's it like having your <<pussy>> out in front of all these strangers?"
						<<elseif $rng gte 26>>
							"You've such a cute <<pussycomma>> I want to taste it."
						<<else>>
							"I bet you love having your <<pussy>> ogled."
						<</if>>
					<</if>>
				<<elseif $worn.under_lower.type.includes("naked") and $worn.genitals.type.includes("chastity")>>
					<<set $rng to random(1, 100)>>
					<<if $rng gte 76>>
						"Where's your master keep the key?"
					<<elseif $rng gte 51>>
						"Nice belt. Are you being punished for being a slut?"
					<<elseif $rng gte 26>>
						"<<pShes>> locked up tight."
					<<else>>
						"I bet you're aching for someone to rip that belt off and fuck you senseless."
					<</if>>
				<<else>>
					<<set $rng to random(1, 100)>>
					<<if $rng gte 76>>
						"I wonder what <<pher>> $worn.under_lower.name smell like."
					<<elseif $rng gte 51>>
						"Hey <<bitchcomma>> chuck us your $worn.under_lower.name."
					<<elseif $rng gte 26>>
						"Those $worn.under_lower.name don't conceal much."
					<<else>>
						"<<pShes>> so exposed, I love it."
					<</if>>
				<</if>>
			<<else>>
				<<if $worn.lower.skirt is 1>>
					<<set $rng to random(1, 100)>>
					<<if $rng gte 76>>
						"Give us a peek beneath your skirt."
					<<elseif $rng gte 51>>
						"Twirl faster <<girlcomma>> lets see that skirt flare."
					<<elseif $rng gte 26>>
						"I love it when they dance in skirts."
					<<else>>
						"Let me get closer, I want to look up <<pher>> skirt."
					<</if>>
				<<else>>
					<<set $rng to random(1, 100)>>
					<<if $rng gte 76>>
						"Take those $worn.lower.name off <<girlstop>>"
					<<elseif $rng gte 51>>
						"I bet you aren't wearing underwear. Prove me wrong."
					<<elseif $rng gte 26>>
						"You must be getting warm with all that movement, why not take off your $worn.lower.name?"
					<<else>>
						"Those $worn.lower.name are cute, but you'd be cuter without them."
					<</if>>
				<</if>>
			<</if>>
		<</if>>
	<<else>>
		<<set $rng to random(1, 100)>>
		<<if $audienceexcitement gte 100>>
			<<if $audiencearousal gte 100>>
				"You're an angel <<girlstop>> Have you come down for a rough fucking?"
			<<elseif $audiencearousal gte 80>>
				"I want to fuck <<phim>> but don't want to interrupt <<pher>> dance."
			<<elseif $audiencearousal gte 60>>
				"<<pShes>> the perfect <<girlstop>>"
			<<elseif $audiencearousal gte 40>>
				"<<pShes>> so beautiful."
			<<elseif $audiencearousal gte 20>>
				"I wonder if <<pshes>> for sale."
			<<else>>
				"<<pShes>> so graceful, I'm entranced."
			<</if>>
		<<elseif $audienceexcitement gte 81>>
			<<if $audiencearousal gte 100>>
				"<<pShes>> so lovely, I don't think I can hold back."
			<<elseif $audiencearousal gte 80>>
				"I want <<phim>> all to myself."
			<<elseif $audiencearousal gte 60>>
				"More! Show us more!"
			<<elseif $audiencearousal gte 40>>
				"I bet you know lewder moves than this."
			<<elseif $audiencearousal gte 20>>
				"I don't think you're as innocent as you look."
			<<else>>
				"<<pShes>> a lot better than the usual sluts we get here."
			<</if>>
		<<elseif $audienceexcitement gte 61>>
			<<if $audiencearousal gte 100>>
				"This <<girl>> needs a good fuck."
			<<elseif $audiencearousal gte 80>>
				"I wonder how much <<pshe>> is."
			<<elseif $audiencearousal gte 60>>
				"You're pretty hot, <<girlstop>>"
			<<elseif $audiencearousal gte 40>>
				"Damn, I need to get me a <<girl>> like this."
			<<elseif $audiencearousal gte 20>>
				"Shake that <<bottom>> for me!"
			<<else>>
				"This <<girl>> is pretty good."
			<</if>>
		<<elseif $audienceexcitement gte 41>>
			<<if $audiencearousal gte 100>>
				"Anyone else feel like dragging <<phim>> off the stage and giving <<phim>> a good fucking?"
			<<elseif $audiencearousal gte 80>>
				"Really wish I could afford this slut."
			<<elseif $audiencearousal gte 60>>
				"I bet <<pshes>> an easy fuck."
			<<elseif $audiencearousal gte 40>>
				"<<pShes>> pretty cool, I guess."
			<<elseif $audiencearousal gte 20>>
				"Where can I get me a <<bitch>> like this?"
			<<else>>
				"You can dance, but how about you show us a bit more?"
			<</if>>
		<<elseif $audienceexcitement gte 21>>
			<<if $audiencearousal gte 100>>
				"I got something for you, <<bitchstop>>" <<He>> gestures at <<his>> crotch.
			<<elseif $audiencearousal gte 80>>
				"I really want to see <<phim>> get ravaged."
			<<elseif $audiencearousal gte 60>>
				"Do you think <<pshe>> would be cheap to fuck?"
			<<elseif $audiencearousal gte 40>>
				"Dance harder, let's see some sweat."
			<<elseif $audiencearousal gte 20>>
				"Do something lewder."
			<<else>>
				"That other <<girl>> was better."
			<</if>>
		<<else>>
			<<if $audiencearousal gte 100>>
				"<<pShe>> can't dance for shit, but I'd fuck <<pher>> brains out anyway."
			<<elseif $audiencearousal gte 80>>
				"It's always funny when these pretty <<girls>> think they can dance."
			<<elseif $audiencearousal gte 60>>
				"<<pShe>> can't dance, but at least <<pshes>> hot."
			<<elseif $audiencearousal gte 40>>
				"<<pShes>> boring, but at least <<pshes>> cute."
			<<elseif $audiencearousal gte 20>>
				"Where'd that cute <<girl>> go? Put <<phim>> back on."
			<<else>>
				<<if $rng gte 76>>
					"Where'd they find these useless sluts anyway?"
				<<elseif $rng gte 51>>
					"Just fuck off and let someone better on."
				<<elseif $rng gte 26>>
					"Who let this idiot up there?"
				<<else>>
					"Get off the stage, <<bitchstop>>"
				<</if>>
			<</if>>
		<</if>>
	<</if>>
<</if>>
<<set $dancespeech to 0>>

<</nobr>><</widget>>