<<if $molestationstart is 1>>
	<<set $molestationstart to 0>>
	<<controlloss>>
	<<violence 1>>
	<<neutral 1>>
	<<molested>>

	<<maninit>>
	<<if $daystate isnot "night">>
		<<set $rescue to 1>>
	<</if>>
<</if>>

<<effects>>

<<effectsman>><<man>>

<<stateman>>
<br><br>
<<actionsman>>

<<if $enemyhealth lte 0>>
	<span id="next"><<link [[Next|Park Ex Bridge Rape Finish]]>><</link>></span><<nexttext>>
<<elseif $enemyarousal gte $enemyarousalmax>>
	<span id="next"><<link [[Next|Park Ex Bridge Rape Finish]]>><</link>></span><<nexttext>>
<<elseif $alarm is 1 and $rescue is 1>>
	<span id="next"><<link [[Next|Park Ex Bridge Rape Finish]]>><</link>></span><<nexttext>>
<<else>>
	<span id="next"><<link [[Next|Park Ex Bridge Rape]]>><</link>></span><<nexttext>>
<</if>>