<<widget "ejaculation-kylar">><<nobr>>
<<set $ejaculating to 1>>

<<if $sexavoid is 0 or $rapeavoid is 0>>
	<<if $consensual is 1>>
		<<famesex 1>>
	<<else>>
		<<famerape 1>>
	<</if>>
<</if>>
<<if $exposed is 1>>
	<<fameexhibitionism 1>>
<<elseif $exposed gte 2>>
	<<fameexhibitionism 2>>
<</if>>

<<if $NPCList[0].pronoun is "m">>
	<<set $pronoun to "m">>
<</if>>
<<if $NPCList[0].pronoun is "f">>
	<<set $pronoun to "f">>
<</if>>
<<if $NPCList[0].pronoun is "i">>
	<<set $pronoun to "i">>
<</if>>
<<if $NPCList[0].pronoun is "n">>
	<<set $pronoun to "n">>
<</if>>
<<if $NPCList[0].pronoun is "t">>
	<<set $pronoun to "t">>
<</if>>

<<if $enemytype is "man">>
	<<set $NPCList[0].intro to 1>>
<<else>>
	<<set $pronoun to "i">>
<</if>>

<!-- Female KYLAR -->
<<if $NPCList[0].vagina isnot "none" and $NPCList[0].penis is "none">>
	<<if $consensual is 1>>
		<<if $NPCList[0].vagina is "mouthentrance" or $NPCList[0].vagina is "mouth" or $NPCList[0].vagina is "mouthimminent">>
			<<switch random(1, 4)>>
			<<case 1 2>>
				<<He>> groans and rubs <<his>> crotch against your face with <<his>> hips, small thighs shaking with orgasm.
				<br><br>
			<<case 3 4>>
				<<He>> goes red in the face and neck, mouth agape as <<he>> cums silently, body twitching uncontrollably.
				<br><br>
			<<case 5>>
				<<He>> screams, cupping the back of your head in <<his>> hands and grinding <<his>> clit against your nose.
				<br><br>
			<</switch>>
		<<elseif $NPCList[0].vagina is "leftarm">>
			<<switch random(1, 5)>>
			<<case 1 2>>
				<<He>> sighs as you finish with <<his>> pussy, shaking <<his>> slim thighs together against your hand as <<his>> body convulses.
				<br><br>
				<<handejacstat>><<ejacstat>><<set $hygiene += 500>><<set $leftarmgoo += 1>>
			<<case 3 4>>
				<<He>> goes red in the face and neck, mouth agape as <<he>> cums silently, cunt spasming against your hand.
				<br><br>
				<<handejacstat>><<ejacstat>><<set $hygiene += 500>><<set $leftarmgoo += 1>>
			<<case 5>>
				<<He>> screams, grabbing your hand and fucking <<his>> pussy with your fingers. Your fingers are soaked in ejaculate.
				<br><br>
				<<handejacstat>><<ejacstat>><<set $hygiene += 500>><<set $leftarmgoo += 1>>
			<</switch>>
		<<elseif $NPCList[0].vagina is "rightarm">>
			<<switch random(1, 5)>>
			<<case 1 2>>
				<<He>> sighs as you finish with <<his>> pussy, knees knocking as <<his>> body convulses.
				<br><br>
				<<handejacstat>><<ejacstat>><<set $hygiene += 500>><<set $rightarmgoo += 1>>
			<<case 3 4>>
				<<He>> goes red in the face and neck, mouth agape as <<he>> cums silently, cunt spasming against your hand.
				<br><br>
				<<handejacstat>><<ejacstat>><<set $hygiene += 500>><<set $rightarmgoo += 1>>
			<<case 5>>
				<<He>> screams, grabbing your hand and fucking <<his>> pussy with your fingers. Your fingers are soaked in ejaculate.
				<br><br>
				<<handejacstat>><<ejacstat>><<set $hygiene += 500>><<set $rightarmgoo += 1>>
			<</switch>>
		<<elseif $NPCList[0].vagina is "lefthand" or $NPCList[0].vagina is "righthand">>
			<<switch random(1, 5)>>
			<<case 1 2>>
				<<He>> sighs as <<he>> cums, releasing you and pulling back <<his>> hand, licking your wetness off <<his>> fingers.
				<br><br>
			<<case 3 4>>
				<<He>> moans loudly and shakes, dripping ejaculate on the ground; <<he>> withdraws <<his>> hand and sighs.
				<br><br>
			<<case 5>>
				<<He>> screams as <<he>> comes, soaking <<his>> own pussy and thighs in ejaculate. "I love pleasuring myself with you."
				<br><br>
				<<faceejacstat>><<ejacstat>><<set $hygiene += 500>><<set $facegoo += 1>>
			<</switch>>
		<<elseif $NPCList[0].vagina is "feet">>
			<<switch random(1, 4)>>
			<<case 1 2>>
				<<He>> moans as you knead <<his>> pussy, jamming your toes inside with <<his>> hands as <<he>> finishes cumming.
				<br><br>
				<<feetejacstat>><<ejacstat>><<set $hygiene += 500>><<set $feetgoo += 1>>
			<<case 3 4>>
				<<He>> shakes bodily as <<he>> cums, twitching underneath your feet and cumming between your toes.
				<br><br>
				<<feetejacstat>><<ejacstat>><<set $hygiene += 500>><<set $feetgoo += 1>>
			<</switch>>
		<<elseif $NPCList[0].vagina is "vagina" and $worn.genitals.type.includes("chastity")>>
			<<He>> gasps as <<he>> cums against your $worn.genitals.name. "Th-there must be a skeleton key for chastity stuff," <<he>> says. "I'll work it out."
			<br><br>
		<<elseif $NPCList[0].vagina is "vagina">>
			<<switch random(1, 5)>>
			<<case 1 2>>
				<<He>> cums as you scissor your pussies together, moaning with pleasure.
				<br><br>
			<<case 3 4>>
				<<He>> moans as <<he>> grinds downs hard on your <<pussy>> to finish, thin legs shaking as <<he>> cums.
				<br><br>
			<<case 5>>
				<<He>> screams, cupping <<his>> small hands under your shoulders as <<his>> entire body shakes; you are surprised by how strong <<he>> is. Ejaculate drenches your crotch as <<he>> squirts.
				<br><br>
				<<vaginalentranceejacstat>><<ejacstat>><<set $hygiene += 500>><<set $vaginaoutsidegoo += 1>>
			<</switch>>
		<<elseif $NPCList[0].vagina is "othermouth">>
			<<switch random(1, 5)>>
			<<case 1 2>>
				<<He>> shudders with pleasure, exhaling warmly against your crotch as <<he>> comes, leaving you wet with saliva and your own fluids.
				<br><br>
				<<vaginalentranceejacstat>><<ejacstat>><<set $hygiene += 500>><<set $vaginaoutsidegoo += 1>>
			<<case 3 4>>
				<<He>> quietly ejaculates, shaking as <<he>> grinds <<his>> nose into your crotch and giving you a long, final, wet lick.
				<br><br>
				<<vaginalentranceejacstat>><<ejacstat>><<set $hygiene += 500>><<set $vaginaoutsidegoo += 1>>
			<<case 5>>
				<<He>> screams into your crotch as <<he>> cums, pinching <<his>> hands between <<his>> thighs and buckling over, ejaculate streaming down <<his>> thighs.
				<br><br>
			<</switch>>
		<!-- following appear to be Male PC to Female Antagonist only? -->
		<<elseif $NPCList[0].vagina is "otheranus">>
			<<switch random(1, 5)>>
			<<case 1 2>>
				<<He>> shakes as <<he>> cums, driving <<his>> ass hard against you as <<he>> releases a final moan.
				<br><br>
			<<case 3 4>>
				<<He>> quietly ejaculates, shaking as <<he>> grinds <<his>> ass deeply with your cock and moaning.
				<br><br>
			<<case 5>>
				<<He>> screams and bucks into your crotch as <<he>> cums, squirting ejaculate from <<his>> pussy and drenching your legs. "I feel so good when I'm with you."
				<br><br>
				<<thighejacstat>><<ejacstat>><<set $hygiene += 500>><<set $thighgoo += 1>>
			<</switch>>
		<<elseif $NPCList[0].vagina is "penis">>
			<<switch random(1, 6)>>
			<<case 1 2>>
				<<He>> grabs your shoulders with <<his>> small hands as <<he>> cums, bouncing down hard against your cock as <<he>> shudders with pleasure. "You make me feel so good."
				<br><br>
				<<penileejacstat>><<ejacstat>><<set $hygiene += 500>><<set $penisgoo += 1>>
			<<case 3 4>>
				<<He>> sighs as <<he>> cums, reddening and going into a full body convulsion. Ejaculate soaks your crotch.
				<br><br>
				<<penileejacstat>><<ejacstat>><<set $hygiene += 500>><<set $penisgoo += 1>>
			<<case 5>>
				<<He>> cries out and bucks on your lap as <<he>> cums, squirting ejaculate from <<his>> pussy and drenching your crotch and legs.
				<br><br>
				<<penileejacstat>><<ejacstat>><<set $hygiene += 500>><<set $penisgoo += 1>>
				<<thighejacstat>><<ejacstat>><<set $hygiene += 500>><<set $thighgoo += 1>>
			<</switch>>
		<<elseif ($NPCList[0].vagina is "penisimminent" or $NPCList[0].vagina is "penisentrance") and $worn.genitals.type.includes("chastity")>>
			<<He>> gasps as <<he>> cums against your $worn.genitals.name. "Th-there must be a skeleton key for chastity devices," <<he>> says. "I'll work it out. Then you can fill me."
			<br><br>
		<<elseif $NPCList[0].vagina is "penisimminent" or $NPCList[0].vagina is "penisentrance">>
			<<He>> cums on your <<penis>>; "Please fuck me next time. Please. I can't stand being teased like this. I need you inside me..."
			<br><br>
		<<elseif ($NPCList[0].vagina is "otheranusfrot" or $NPCList[0].vagina is "otheranusentrance") and $worn.genitals.type.includes("chastity")>>
			<<He>> gasps as <<he>> cums against your $worn.genitals.name. "Th-there must be a skeleton key for chastity stuff," <<he>> says. "I'll work it out. Then you can fill me."
			<br><br>
		<<elseif $NPCList[0].vagina is "otheranusfrot" or $NPCList[0].vagina is "otheranusentrance">>
			<<He>> bucks <<his>> ass against your cock as <<he>> cums. <<He>> begins crying, "Why won't you fuck me? Don't you love me?"
			<br><br>
		<<elseif $NPCList[0].vagina is "frot" and $worn.genitals.type.includes("chastity")>>
			<<He>> gasps as <<he>> cums against your $worn.genitals.name. "Th-there must be a skeleton key for chastity stuff," <<he>> says. "I'll work it out."
			<br><br>
		<<elseif $NPCList[0].vagina is "frot">>
			<<He>> grinds <<his>> clit hard against your cock as <<he>> cums, ejaculating on your cock. <<He>> looks panicked, "Why didn't you penetrate me? Who else is there? You can tell me..."
			<br><br>
			<<penileejacstat>><<ejacstat>><<set $hygiene += 500>><<set $penisgoo += 1>>
		<!-- Special case male PC with female NPC -->
		<<elseif $NPCList[0].mouth is "penis">>
			<<switch random(1, 4)>>
			<<case 1 2>>
				<<He>> cums as you fuck <<his>> mouth, smiling as <<he>> finishes.
				<br><br>
			<<case 3 4>>
				<<He>> cums as you fuck <<his>> mouth, leaving your <<penis>> a slimy mess. "I love what you do to me."
				<br><br>
			<</switch>>
		<<else>>
			<<He>> convulses in orgasmic bliss.
			<br><br>
		<</if>>
	<<else>>
		<<if $NPCList[0].vagina is "footjob">>
			<<switch random(1, 5)>>
			<<case 1 2 3>>
				<<He>> gasps as <<he>> cums. Recovering, <<he>> smiles and stands over you, your <<lewdness>> on display below <<himstop>> "There are so many ways I can pleasure you; we can explore all of them."
				<br><br>
			<<case 4 5>>
				<<He>> laughs as <<he>> cums, removing <<his>> foot from your crotch. "It makes me feel so powerful pleasuring you like this."
				<br><br>
				<<faceejacstat>><<ejacstat>><<set $hygiene += 500>><<set $facegoo += 1>>
			<</switch>>
		<<elseif $NPCList[0].vagina is "vagina" and $worn.genitals.type.includes("chastity")>>
			<<He>> gasps as <<he>> cums against your $worn.genitals.name. "Th-there must be a skeleton key for chastity stuff," <<he>> says.
			<br><br>
		<<elseif $NPCList[0].vagina is "vagina">>
			<<switch random(1, 5)>>
			<<case 1 2>>
				<<He>> groans as <<he>> cums, dragging <<his>> wet pussy across your ass and thighs.
				<br><br>
			<<case 3 4>>
				<<He>> moans as <<he>> digs <<his>> nails into your shoulders and grinds downs hard on your <<pussystop>> You are surprised by <<his>> strength.
				<br><br>
			<<case 5>>
				<<He>> screams, grabbing you by the hair and mashing <<his>> entire body against yours. Ejaculate streams from <<his>> pussy, drenching you.
				<br><br>
				<<vaginalentranceejacstat>><<ejacstat>><<set $hygiene += 500>><<set $vaginaoutsidegoo += 1>>
			<</switch>>
		<<elseif $NPCList[0].vagina is "othermouth">>
			<<He>> shakes with arousal as <<he>> cums, wiping <<his>> wet face clean on your stomach.
			<br><br>
		<<elseif $NPCList[0].vagina is "lefthand" or $NPCList[0].vagina is "righthand">>
			<<He>> moans as <<he>> cums. <<He>> grabs you by the hair and pull <<his>> face close; you are surprised by <<his>> strength. "Don't forget I'm the only one allowed to pleasure you."
			<br><br>
		<<elseif $NPCList[0].vagina is "mouthentrance" or $NPCList[0].vagina is "mouth" or $NPCList[0].vagina is "mouthimminent">>
			<<He>> groans and cups your head, grinding <<his>> clit against your nose as <<his>> small thighs shake with orgasm.
			<br><br>
			<<faceejacstat>><<ejacstat>><<set $hygiene += 500>><<set $facegoo += 1>>
		<!-- following appear to be Male PC to Female Antagonist only? -->
		<<elseif $NPCList[0].vagina is "otheranus">>
			<<He>> shakes as <<he>> cums, reaching back and digging <<his>> nails into your thighs as <<he>> releases a final moan.
			<br><br>
		<<elseif $NPCList[0].vagina is "penis">>
			<<He>> digs <<his>> small fingers into your shoulders as <<he>> cums, driving <<his>> pussy down hard against your cock as <<he>> shudders with pleasure.
			<br><br>
		<<elseif ($NPCList[0].vagina is "penisimminent" or $NPCList[0].vagina is "penisentrance") and $worn.genitals.type.includes("chastity")>>
			<<He>> gasps as <<he>> cums against your $worn.genitals.name. "I-I can't take this," <<he>> says. "I need you inside me. Th-there must be a skeleton key for chastity stuff."
			<br><br>
		<<elseif $NPCList[0].vagina is "penisimminent" or $NPCList[0].vagina is "penisentrance">>
			<<He>> moans as <<he>> cums on your throbbing cock. <<He>> tears up, "Why didn't you fuck me? Who else is there? Tell me!"
			<br><br>
		<<elseif $NPCList[0].vagina is "otheranusfrot" or $NPCList[0].vagina is "otheranusentrance" and $worn.genitals.type.includes("chastity")>>
			<<He>> gasps as <<he>> cums against your $worn.genitals.name. "I-I can't take this," <<he>> says. "I need you inside me. Th-there must be a skeleton key for chastity stuff."
			<br><br>
		<<elseif $NPCList[0].vagina is "otheranusfrot" or $NPCList[0].vagina is "otheranusentrance">>
			<<He>> swivels <<his>> ass against your cock as <<he>> cums. <<He>> begins crying "Please fuck me next time. I swear I'll be good..."
			<br><br>
		<<elseif $NPCList[0].vagina is "frot" and $worn.genitals.type.includes("chastity")>>
			<<He>> gasps as <<he>> cums against your $worn.genitals.name. "Th-there must be a skeleton key for chastity stuff," <<he>> says.
			<br><br>
		<<elseif $NPCList[0].vagina is "frot">>
			<<He>> grinds <<his>> clit hard against your cock as <<he>> cums. "Why didn't you fuck me? Am I not good enough for you? Is there someone else? There better not be someone else."
			<br><br>
		<!-- Special case male PC with female NPC -->
		<<elseif $NPCList[0].mouth is "penis">>
			<<He>> cums as you fuck <<his>> mouth, pushing away as <<he>> gasps for air. "I can't take anymore... please forgive me."
			<br><br>
		<<else>>
			<<switch random(1, 7)>>
			<<case 1 2 3>>
				<<He>> trembles with orgasm. Pulling your face close <<he>> says, "I want you with me forever."
				<br><br>
			<<case 4 5 6>>
				<<He>> sighs quietly as <<he>> cums, stroking your back. "You know I'd die without you, don't you?"
				<br><br>
			<<case 7>>
				<<He>> rapidly rubs <<his>> clit and screams as <<he>> cums; <<his>> pussy squirting and dripping down to <<his>> knees. "I can't control myself when I'm with you."
				<br><br>
			<</switch>>
		<</if>>
	<</if>>
<</if>>

<!-- Male KYLAR -->
<<if $consensual is 1>>
	<<if $NPCList[0].penis is "idle">>
		<<He>> groans as a wet patch forms on <<his>> trousers. You barely stifle a giggle at the sight.
		<br><br>
	<<elseif $NPCList[0].penis is "thighs">>
		<<switch random(1, 7)>>
		<<case 1 2 3>>
			<<He>> shakes as <<he>> cums, pulling <<his>> cock out and ejaculating onto the backs of your thighs.
			<br><br>
			<<thighejacstat>><<ejacstat>><<set $hygiene += 500>><<set $thighsemen += 1>>
		<<case 4 5 6>>
			<<He>> grabs your legs, pushing <<his>> crotch hard into yours as <<he>> cums and ejaculating onto your tummy.
			<br><br>
			<<tummyejacstat>><<ejacstat>><<set $hygiene += 500>><<set $tummysemen += 1>>
		<<case 7>>
			<<He>> groan as <<he>> cums, ejaculating a massive load that covers your thighs and tummy.
			<br><br>
			<<thighejacstat>><<ejacstat>><<set $hygiene += 500>><<set $thighsemen += 1>>
			<<tummyejacstat>><<ejacstat>><<set $hygiene += 500>><<set $tummysemen += 1>>
		<</switch>>
	<<elseif $NPCList[0].penis is "vaginaentrance" and $worn.genitals.type.includes("chastity")>>
		<<He>> gasps as <<he>> cums against your $worn.genitals.name. "I-I can't take this," <<he>> says. "I need to go inside you. Th-there must be a skeleton key for chastity stuff."
		<br><br>
	<<elseif $NPCList[0].penis is "vaginaentrance">>
		<<switch random(1, 7)>>
		<<case 1 2 3>>
			<<He>> holds you still by the hips with one hand and with the other on <<his>> cock, ejaculates onto your <<pussystop>> Semen coats your outer lips and pools around your legs.
			<br><br>
			<<vaginalentranceejacstat>><<ejacstat>><<set $hygiene += 500>><<set $vaginaoutsidesemen += 1>>
		<<case 4 5 6>>
			<<He>> strokes <<his>> cock and ejaculates onto your <<pussy>> without a word, sending white streams of semen running down your cunt.
			<br><br>
			<<vaginalentranceejacstat>><<ejacstat>><<set $hygiene += 500>><<set $vaginaoutsidesemen += 1>>
		<<case 7>>
			<<He>> moans and strokes <<his>> cock as <<he>> cums, sending thick ropes of semen onto your <<pussy>> and ass.
			<br><br>
			<<vaginalentranceejacstat>><<ejacstat>><<set $hygiene += 500>><<set $vaginaoutsidesemen += 1>>
			<<bottomejacstat>><<ejacstat>><<set $hygiene += 500>><<set $bottomsemen += 1>>
		<</switch>>
	<<elseif $NPCList[0].penis is "vaginaimminent" and $worn.genitals.type.includes("chastity")>>
		<<He>> gasps as <<he>> cums onto your $worn.genitals.name. "I-I can't take this," <<he>> says. "I need to fill you. Th-there must be a skeleton key for chastity stuff."
		<br><br>
	<<elseif $NPCList[0].penis is "vaginaimminent">>
		<<switch random(1, 7)>>
		<<case 1 2 3>>
			<<He>> cums before <<he>> can penetrate your <<pussycomma>> ejaculating on the outside. Semen coats your outer lips and tummy; <<he>> seems upset with <<himselfstop>>
			<br><br>
			<<vaginalentranceejacstat>><<ejacstat>><<set $hygiene += 500>><<set $vaginaoutsidesemen += 1>>
		<<case 4 5 6>>
			<<He>> ejaculates onto your <<pussy>> before <<he>> can penetrate you, sending white streams of semen running down your <<pussy>>; <<he>> seems disappointed.
			<br><br>
			<<vaginalentranceejacstat>><<ejacstat>><<set $hygiene += 500>><<set $vaginaoutsidesemen += 1>>
		<<case 7>>
			<<He>> moans and strokes <<his>> cock as <<he>> cums, sending thick ropes of semen onto your <<pussy>> and ass.
			<br><br>
			<<vaginalentranceejacstat>><<ejacstat>><<set $hygiene += 500>><<set $vaginaoutsidesemen += 1>>
			<<bottomejacstat>><<ejacstat>><<set $hygiene += 500>><<set $bottomsemen += 1>>
		<</switch>>
	<<elseif $NPCList[0].penis is "vagina">>
		<<switch random(1, 7)>>
		<<case 1 2 3>>
			<<He>> moans and thrusts deeply into your <<pussy>> as <<he>> cums, holding <<his>> cock deep in your womb. You feel warm as semen fills your vagina.
			<br><br>
			<<vaginalejacstat>><<ejacstat>><<set $hygiene += 500>><<set $vaginasemen += 1>>
		<<case 4 5 6>>
			<<He>> quiets and grabs your shoulders with <<his>> small hands, pulling you onto <<his>> cock as <<he>> cums. Semen fills your <<pussycomma>> leaving you breathless.
			<br><br>
			<<vaginalejacstat>><<ejacstat>><<set $hygiene += 500>><<set $vaginasemen += 1>>
		<<case 7>>
			<<He>> convulses and grinds down on your crotch as <<he>> cums, sending thick waves of cum into your <<pussystop>> Semen oozes from your vagina and down your legs.
			<br><br>
			<<vaginalentranceejacstat>><<ejacstat>><<set $hygiene += 500>><<set $vaginaoutsidesemen += 1>>
			<<thighejacstat>><<ejacstat>><<set $hygiene += 500>><<set $thighsemen += 1>>
		<</switch>>
	<<elseif $NPCList[0].penis is "cheeks" and $worn.genitals.type.includes("chastity")>>
		<<He>> gasps as <<he>> cums onto your $worn.genitals.name. "I-I can't take this," <<he>> says. "I need to fill you. Th-there must be a skeleton key for chastity stuff."
		<br><br>
	<<elseif $NPCList[0].penis is "cheeks">>
		<<switch random(1, 7)>>
		<<case 1 2 3>>
			<<He>> shakes as <<he>> cums, withdrawing <<his>> cock from your cheeks and ejaculating onto your ass.
			<br><br>
			<<bottomejacstat>><<ejacstat>><<set $hygiene += 500>><<set $bottomsemen += 1>>
		<<case 4 5 6>>
			<<He>> grabs your thighs, pushing <<his>> crotch hard against your ass and ejaculating between your cheeks.
			<br><br>
			<!-- Really should be onto PCs back given position. Or hair maybe. Esp next one -->
			<<bottomejacstat>><<ejacstat>><<set $hygiene += 500>><<set $bottomsemen += 1>>
		<<case 7>>
			<<He>> squeezes your cheeks together and grunts as <<he>> cums, sending out massive load that covers your ass and drips down your crotch; <<he>> seems pleased.
			<br><br>
			<<bottomejacstat>><<ejacstat>><<set $hygiene += 1000>><<set $bottomsemen += 2>>
		<</switch>>
	<<elseif $NPCList[0].penis is "anusentrance" and $worn.genitals.type.includes("chastity") and $worn.genitals.anal_shield is 1>>
		<<He>> gasps as <<he>> cums onto your $worn.genitals.name. "I-I can't take this," <<he>> says. "I need to fill you. Th-there must be a skeleton key for chastity stuff."
		<br><br>
	<<elseif $NPCList[0].penis is "anusentrance">>
		<<switch random(1, 7)>>
		<<case 1 2 3>>
			<<He>> pinches your asscheek with one hand and strokes <<his>> cock with the other, ejaculating onto your bottom. Semen drips down your butt and into your crack.
			<br><br>
			<<bottomejacstat>><<ejacstat>><<set $hygiene += 500>><<set $bottomsemen += 1>>
		<<case 4 5 6>>
			<<He>> strokes <<his>> cock and quietly ejaculates onto your ass. You feel warm semen dripping down your bottom.
			<br><br>
			<<bottomejacstat>><<ejacstat>><<set $hygiene += 500>><<set $bottomsemen += 1>>
		<<case 7>>
			<<He>> moans and strokes <<his>> cock as <<he>> cums, sending thick ropes of semen onto your ass and down your crotch.
			<br><br>
			<<bottomejacstat>><<ejacstat>><<set $hygiene += 1000>><<set $bottomsemen += 2>>
		<</switch>>
	<<elseif $NPCList[0].penis is "anusimminent" and $worn.genitals.type.includes("chastity") and $worn.genitals.anal_shield is 1>>
		<<He>> gasps as <<he>> cums onto your $worn.genitals.name. "I-I can't take this," <<he>> says. "I need to fill you. Th-there must be a skeleton key for chastity stuff."
		<br><br>
	<<elseif $NPCList[0].penis is "anusimminent">>
		<<switch random(1, 7)>>
		<<case 1 2 3>>
			<<He>> cums before <<he>> can penetrate your ass, ejaculating on the outside. Semen coats your ass and drips down your crack; <<he>> seems upset with <<himselfstop>>
			<br><br>
			<<bottomejacstat>><<ejacstat>><<set $hygiene += 500>><<set $bottomsemen += 1>>
		<<case 4 5 6>>
			<<He>> strokes <<his>> cock and ejaculates onto your ass before <<he>> can penetrate you, sending white streams of semen running down your crack; <<he>> seems upset.
			<br><br>
			<<bottomejacstat>><<ejacstat>><<set $hygiene += 500>><<set $bottomsemen += 1>>
		<<case 7>>
			<<He>> moans and strokes <<his>> cock as <<he>> cums, sending thick ropes of semen onto your ass and crotch.
			<br><br>
			<<bottomejacstat>><<ejacstat>><<set $hygiene += 1000>><<set $bottomsemen += 2>>
		<</switch>>
	<<elseif $NPCList[0].penis is "anus">>
		<<switch random(1, 7)>>
		<<case 1 2 3>>
			<<He>> moans and thrusts into your ass as <<he>> cums. You gasp as you feel semen filling you.
			<br><br>
			<<analejacstat>><<ejacstat>><<set $hygiene += 500>><<set $anussemen += 1>>
		<<case 4 5 6>>
			<<He>> wordlessly grabs your shoulders, pulling you back onto <<his>> cock as <<he>> cums. Semen fills your ass as you moan with pleasure.
			<br><br>
			<<analejacstat>><<ejacstat>><<set $hygiene += 500>><<set $anussemen += 1>>
		<<case 7>>
			<<He>> convulses and, with a final shove, cums in your ass. Thick waves of semen pump into you. You're surprised at the amount; cum oozes from your ass and runs down your legs.
			<br><br>
			<<analejacstat>><<ejacstat>><<set $hygiene += 500>><<set $anussemen += 1>>
			<<thighejacstat>><<ejacstat>><<set $hygiene += 500>><<set $thighsemen += 1>>
		<</switch>>
	<<elseif $NPCList[0].penis is "chest">>
		<<switch random(1, 7)>>
		<<case 1 2 3>>
			<<He>> pushes your <<breasts>> together tightly on <<his>> cock as <<he>> cums, ejaculating onto them. Your body feels slick with cum.
			<br><br>
			<<chestejacstat>><<ejacstat>><<set $hygiene += 500>><<set $chestsemen += 1>>
			<<case 4 5 6>>
			<<He>> strokes the tip of <<his>> cock between your <<breasts>> and quietly ejaculates on them. Your <<breasts>> feel cool as semen drips down them.
			<br><br>
			<<chestejacstat>><<ejacstat>><<set $hygiene += 500>><<set $chestsemen += 1>>
		<<case 7>>
			<<He>> puts <<his>> hand behind your neck and bears down on your <<breastscomma>> grunting as <<he>> cums; semen shoots between your <<breasts>> and covers your <<if $position is "missionary">>face<<faceejacstat>><<ejacstat>><<set $hygiene += 500>><<set $facesemen += 1>><<else>>stomach<<tummyejacstat>><<ejacstat>><<set $hygiene += 500>><<set $tummysemen += 1>><</if>>.
			<br><br>
			<<chestejacstat>><<ejacstat>><<set $hygiene += 500>><<set $chestsemen += 1>>
		<</switch>>
	<<elseif $NPCList[0].penis is "mouthentrance">>
		<<switch random(1, 7)>>
		<<case 1 2 3>>
			<<He>> cups you under the chin with one hand and strokes <<his>> cock with the other, ejaculating onto your face. <<He>> says "Oh my God I'm so sorry" but <<his>> face looks excited.
			<br><br>
			<<faceejacstat>><<ejacstat>><<set $hygiene += 500>><<set $facesemen += 1>>
		<<case 4 5 6>>
			<<He>> strokes <<his>> cock and quietly ejaculates onto your face. Warm cums drips down your forehead and nose. <span class="green">He leans down and licks it off.</span>
			<br><br>
		<<case 7>>
			<<He>> gasps and strokes <<his>> cock while aiming straight at your mouth. Thick ropes of cum cover your face and push past your closed lips into your mouth. You're impressed by the volume and <<he>> looks oddly pleased with <<himselfstop>>
			<br><br>
			<<faceejacstat>><<ejacstat>><<set $hygiene += 500>><<set $facesemen += 1>>
			<<oralejacstat>><<ejacstat>><<set $hunger -= 200>><<set $thirst -= 200>><<set $mouthsemen += 1>>
		<</switch>>
	<<elseif $NPCList[0].penis is "mouthimminent">>
		<<switch random(1, 7)>>
		<<case 1 2 3>>
			<<He>> cups the back of your head, ejaculating onto your lips as you barely brush against the tip of <<his>> penis; <<he>> seems upset with <<his>> lack of control.
			<br><br>
			<<faceejacstat>><<ejacstat>><<set $hygiene += 500>><<set $facesemen += 1>>
		<<case 4 5 6>>
			<<He>> brushes <<his>> cock against your face, causing <<him>> to ejaculate early. Cums drips down your lips and chin; <<he>> seems upset with <<himselfstop>>
			<br><br>
			<<faceejacstat>><<ejacstat>><<set $hygiene += 500>><<set $facesemen += 1>>
		<<case 7>>
			<<He>> cups your head but in <<his>> excitement cums before <<he>> can enter your mouth. Thick ropes of cum cover your cheeks, chin, and into your waiting mouth.
			<br><br>
			<<faceejacstat>><<ejacstat>><<set $hygiene += 500>><<set $facesemen += 1>>
			<<oralejacstat>><<ejacstat>><<set $hunger -= 200>><<set $thirst -= 200>><<set $mouthsemen += 1>>
		<</switch>>
	<<elseif $NPCList[0].penis is "mouth">>
	<!-- this is picking up women NPCs...? -->
		<<switch random(1, 7)>>
		<<case 1 2 3>>
			<<He>> cups you under the chin with one hand and holds the back of your head with the other, thrusting into your mouth as <<he>> cums. Ejaculate streams down your throat and fills your mouth.
			<br><br>
			<<oralejacstat>><<ejacstat>><<set $hunger -= 200>><<set $thirst -= 200>><<set $mouthsemen += 1>>
		<<case 4 5 6>>
			<<He>> grasps the base of <<his>> cock and moans, quietly ejaculating into your mouth. You feel warm cum fill your mouth and drip down your throat.
			<br><br>
			<<oralejacstat>><<ejacstat>><<set $hunger -= 200>><<set $thirst -= 200>><<set $mouthsemen += 1>>
		<<case 7>>
			<<He>> palms your head, wildly thrusting <<his>> cock in your mouth as <<he>> cums. Semen streams down your throat, fills your mouth and covers your face as <<he>> flails. "It's hard to control myself with you."
			<br><br>
			<<faceejacstat>><<ejacstat>><<set $hygiene += 500>><<set $facesemen += 1>>
			<<oralejacstat>><<ejacstat>><<set $hunger -= 200>><<set $thirst -= 200>><<set $mouthsemen += 1>>
		<</switch>>
	<<elseif $NPCList[0].penis is "feet">>
		<<switch random(1, 7)>>
		<<case 1 2 3>>
			<<He>> pushes your feet together and groans as <<he>> cums. Ejaculate covers your feet.
			<br><br>
			<<feetejacstat>><<ejacstat>><<set $hygiene += 500>><<set $feetsemen += 1>>
		<<case 4 5 6>>
			<<He>> quietly cums on your feet, slickening them with semen.
			<br><br>
			<<feetejacstat>><<ejacstat>><<set $hygiene += 500>><<set $feetsemen += 1>>
		<<case 7>>
			<<He>> grunts and thrusts <<his>> cock between your feet as <<he>> cums, splattering cum on your feet and legs in the process.
			<br><br>
			<<feetejacstat>><<ejacstat>><<set $hygiene += 500>><<set $feetsemen += 1>>
			<<thighejacstat>><<ejacstat>><<set $hygiene += 500>><<set $thighsemen += 1>>
		<</switch>>
	<<elseif $NPCList[0].penis is "leftarm" and $NPCList[0].penis is "rightarm">>
		<<switch random(1, 7)>>
		<<case 1 2 3>>
			<<He>> groans as <<he>> cums, penis pulsing in your hands, covering them both in cum.
			<br><br>
			<<handejacstat>><<ejacstat>><<set $hygiene += 500>><<set $leftarmsemen += 1>><<set $rightarmsemen += 1>>
		<<case 4 5 6>>
			<<He>> quietly cums on your hands, slickening them with semen.
			<br><br>
			<<handejacstat>><<ejacstat>><<set $hygiene += 500>><<set $leftarmsemen += 1>><<set $rightarmsemen += 1>>
		<<case 7>>
			<<He>> spasms and moans, shooting thick streams of cum. You are so intent on your work you don't notice <<his>> penis is aimed at your face, which is splattered with cum in the process. "Oh God, I'm so sorry" <<he>> says, but <<his>> face betrays <<his>> words.
			<br><br>
			<<handejacstat>><<ejacstat>><<set $hygiene += 500>><<set $leftarmsemen += 1>><<set $rightarmsemen += 1>>
			<<faceejacstat>><<ejacstat>><<set $hygiene += 500>><<set $facesemen += 1>>
		<</switch>>
	<<elseif $NPCList[0].penis is "leftarm">>
		<<switch random(1, 7)>>
		<<case 1 2 3>>
			<<He>> groans as <<he>> cums, penis sliding hotly in your left hand and covering it with cum. "You make me feel so good."
			<br><br>
			<<handejacstat>><<ejacstat>><<set $hygiene += 500>><<set $leftarmsemen += 1>>
		<<case 4 5 6>>
			<<He>> quietly cums on your left hand. Semen drips down your fingers. "I love how you make me feel."
			<br><br>
			<<handejacstat>><<ejacstat>><<set $hygiene += 500>><<set $leftarmsemen += 1>>
		<<case 7>>
			<<He>> spasms and moans, shooting thick streams of cum and splattering your <<breasts>> in the process. You're impressed by the volume from such a small body.
			<br><br>
			<<handejacstat>><<ejacstat>><<set $hygiene += 500>><<set $leftarmsemen += 1>>
			<<chestejacstat>><<ejacstat>><<set $hygiene += 500>><<set $chestsemen += 1>>
		<</switch>>
	<<elseif $NPCList[0].penis is "rightarm">>
		<<switch random(1, 7)>>
		<<case 1 2 3>>
			<<He>> groans as your work <<his>> shaft with your right hand, cumming as you give <<him>> a final squeeze. Your hand is covered in warm semen. "You make me feel so special."
			<br><br>
			<<handejacstat>><<ejacstat>><<set $hygiene += 500>><<set $rightarmsemen += 1>>
		<<case 4 5 6>>
			<<He>> quietly cums on your right hand. Semen cools on your fingers. "I love how you make me feel."
			<br><br>
			<<handejacstat>><<ejacstat>><<set $hygiene += 500>><<set $rightarmsemen += 1>>
		<<case 7>>
			<<He>> grunts and shoots thick ropes of semen onto your hands, making an impressive mess. You're impressed by the volume from such a small body.
			<br><br>
			<<handejacstat>><<ejacstat>><<set $hygiene += 500>><<set $rightarmsemen += 1>>
		<</switch>>
	<<elseif $NPCList[0].penis is 0>>
		<<switch random(1, 4)>>
		<<case 1>>
			<<He>> groans as <<he>> works <<his>> shaft and, giving <<his>> cock a final squeeze, ejaculates onto your tummy. "I guess that's OK because you're mine."
			<br><br>
			<<tummyejacstat>><<ejacstat>><<set $hygiene += 500>><<set $tummysemen += 1>>
		<<case 2>>
			<<He>> rapidly rubs <<his>> cock and moans, ejaculating on the ground. "You make me feel so good."
			<br><br>
		<<case 3>>
			<<He>> strokes <<his>> penis and, aiming at your ass, ejaculates on your bottom. "I'm sorry, I just couldn't help myself."
			<br><br>
			<<bottomejacstat>><<ejacstat>><<set $hygiene += 500>><<set $bottomsemen += 1>>
		<<case 4>>
			<<He>> strokes <<his>> penis and moans, ejaculating on your <<breastsstop>>. <<He>> apologies and licks up the mess.
			<br><br>
		<</switch>>
	<<elseif $NPCList[0].penis is "otheranus">>
		<<switch random(1, 7)>>
		<<case 1 2 3>>
			<<He>> groans as you fuck <<his>> ass, <<his>> ejaculate spraying on <<his>> own stomach. "I love how you make me feel."
			<br><br>
		<<case 4 5>>
			<<He>> whimpers as you pound <<his>> ass, moaning in please as <<he>> ejaculates on the ground. You roll off <<himstop>>
			<br><br>
		<<case 6 7>>
			<<He>> sighs as <<he>> ejaculates onto <<his>> own chest. "I want you to stay with me forever..."
			<br><br>
		<</switch>>
	<<elseif $NPCList[0].penis is "otheranusfrot" or $NPCList[0].penis is "otheranusentrance" or $NPCList[0].penis is "otheranusimminent" and $worn.genitals.type.includes("chastity")>>
		<<He>> gasps as <<he>> cums onto your $worn.genitals.name. "I-I can't take this," <<he>> says. "I need to fill you. Th-there must be a skeleton key for chastity stuff."
		<br><br>
	<<elseif $NPCList[0].penis is "otheranusfrot" or $NPCList[0].penis is "otheranusentrance" or $NPCList[0].penis is "otheranusimminent">>
		<<switch random(1, 7)>>
		<<case 1 2 3>>
			<<He>> noisily cums as you fuck <<his>> cheeks, grabbing your ass from behind and grinding your cock against <<his>> ass to finish. "Please fuck me properly next time. Please. I can't stand being teased. Please..."
			<br><br>
		<<case 4 5>>
			<<He>> moans as you rub against <<his>> anus and ejaculates on the ground. <<He>> seems disappointed, "Why didn't you fuck me? Don't you love me? Am I not good enough for you?"
			<br><br>
		<<case 6 7>>
			<<He>> sobs as <<he>> ejaculates onto <<his>> own chest and begins crying, "Why didn't you fuck me? Tell me what I can do to deserve your cock..."
			<br><br>
		<</switch>>
	<!-- Special case male PC being orally serviced by male NPC with no other contact -->
	<<elseif $NPCList[0].mouth is "penis">>
		<<switch random(1, 7)>>
		<<case 1 2 3>>
			<<He>> cums as you fuck <<his>> mouth, gasping against your cock. "God I love you so much."
			<br><br>
		<<case 4 5>>
			<<He>> cums on the ground as you fuck <<his>> mouth. <<He>> backs away, "I'm sorry; I can't take anymore. Please forgive me."
			<br><br>
		<<case 6 7>>
			<<He>> grabs you by the ass and drives your cock deeply into <<his>> throat, ejaculating on <<his>> chest as <<he>> throats your cock.
			<br><br>
		<</switch>>
	<<elseif $NPCList[0].penis is "othermouth">>
		<<He>> shakes with arousal as <<he>> cums, wiping <<his>> wet face clean on your body.
		<br><br>
	<</if>>
<<else>>
	<<if $NPCList[0].penis is "idle">>
		<<He>> groans as a wet patch forms on <<his>> trousers. You barely stifle a laugh at the pathetic display.
		<br><br>
	<<elseif $NPCList[0].penis is "thighs">>
		<<switch random(1, 7)>>
		<<case 1 2 3>>
			<<He>> shakes as <<he>> cums, pulling <<his>> cock out and ejaculating onto the backs of your thighs, and wipes <<his>> cock clean on your ass.
			<br><br>
			<<thighejacstat>><<ejacstat>><<set $hygiene += 500>><<set $thighsemen += 1>>
		<<case 4 5 6>>
			<<He>> grabs your legs, slamming <<his>> crotch hard into your ass as <<he>> cums and ejaculates onto your tummy.
			<br><br>
			<<tummyejacstat>><<ejacstat>><<set $hygiene += 500>><<set $tummysemen += 1>>
		<<case 7>>
			<<He>> groan as <<he>> cums, ejaculating a massive load that covers your thighs and tummy. <<He>> seems impressed with <<himselfstop>>
			<br><br>
			<<thighejacstat>><<ejacstat>><<set $hygiene += 500>><<set $thighsemen += 1>>
			<<tummyejacstat>><<ejacstat>><<set $hygiene += 500>><<set $tummysemen += 1>>
		<</switch>>
	<<elseif $NPCList[0].penis is "vaginaentrance" and $worn.genitals.type.includes("chastity")>>
		<<He>> gasps as <<he>> cums onto your $worn.genitals.name. "I-I can't take this," <<he>> says. "I need to fill you. Th-there must be a skeleton key for chastity stuff."
		<br><br>
	<<elseif $NPCList[0].penis is "vaginaentrance">>
		<<switch random(1, 7)>>
		<<case 1 2 3>>
			<<He>> grabs your hips, pulling you back and ejaculating onto your <<pussystop>> Semen coats your outer lips and pools around your legs.
			<br><br>
			<<vaginalentranceejacstat>><<ejacstat>><<set $hygiene += 500>><<set $vaginaoutsidesemen += 1>>
		<<case 4 5 6>>
			<<He>> strokes <<his>> cock and ejaculates onto your <<pussy>> without a word, sending white streams of semen running down your cunt.
			<br><br>
			<<vaginalentranceejacstat>><<ejacstat>><<set $hygiene += 500>><<set $vaginaoutsidesemen += 1>>
		<<case 7>>
			<<He>> moans and strokes <<his>> cock as <<he>> cums, sending thick ropes of semen onto your <<pussy>> and ass. <<He>> seems impressed with the mess <<hes>> made.
			<br><br>
			<<vaginalentranceejacstat>><<ejacstat>><<set $hygiene += 500>><<set $vaginaoutsidesemen += 1>>
			<<bottomejacstat>><<ejacstat>><<set $hygiene += 500>><<set $bottomsemen += 1>>
		<</switch>>
	<<elseif $NPCList[0].penis is "vaginaimminent" and $worn.genitals.type.includes("chastity")>>
		<<He>> gasps as <<he>> cums onto your $worn.genitals.name. "I-I can't take this," <<he>> says. "I need to fill you. Th-there must be a skeleton key for chastity stuff."
		<br><br>
	<<elseif $NPCList[0].penis is "vaginaimminent">>
		<<switch random(1, 7)>>
		<<case 1 2 3>>
			<<He>> cums before <<he>> can penetrate your <<pussycomma>> ejaculating on the outside. Semen coats your outer lips and tummy. <<He>> turns beet red in anger, small fists shaking, but does nothing.
			<br><br>
			<<vaginalentranceejacstat>><<ejacstat>><<set $hygiene += 500>><<set $vaginaoutsidesemen += 1>>
		<<case 4 5 6>>
			<<He>> ejaculates onto your <<pussy>> before <<he>> can penetrate you, sending white streams of semen running down your cunt; <<he>> pulls <<his>> own hair in frustration.
			<br><br>
			<<vaginalentranceejacstat>><<ejacstat>><<set $hygiene += 500>><<set $vaginaoutsidesemen += 1>>
		<<case 7>>
			<<He>> moans and strokes <<his>> cock as <<he>> cums, sending thick ropes of semen onto your <<pussy>> and ass. <<He>> seems upset at first, but then smiles as <<he>> looks down on your <<lewdness>> covered in <<his>> cum.
			<br><br>
			<<vaginalentranceejacstat>><<ejacstat>><<set $hygiene += 500>><<set $vaginaoutsidesemen += 1>>
			<<bottomejacstat>><<ejacstat>><<set $hygiene += 500>><<set $bottomsemen += 1>>
		<</switch>>
	<<elseif $NPCList[0].penis is "vagina">>
		<<switch random(1, 7)>>
		<<case 1 2 3>>
			<<He>> grabs your hair, pulling and thrusting deeply into your <<pussy>> as <<he>> cums, holding <<his>> cock deep in your womb. Semen splashes inside your cunt.
			<br><br>
			<<vaginalejacstat>><<ejacstat>><<set $hygiene += 500>><<set $vaginasemen += 1>>
		<<case 4 5 6>>
			<<He>> quiets and pounds <<his>> cock into you as <<he>> cums. Semen fills your <<pussy>> as you gasp at the feeling of being filled against your will.
			<br><br>
			<<vaginalejacstat>><<ejacstat>><<set $hygiene += 500>><<set $vaginasemen += 1>>
		<<case 7>>
			<<He>> convulses and grinds down on your cunt as <<he>> cums, sending thick waves of cum into your <<pussystop>> Semen oozes from your vagina and down your legs. <<He>> looks down at the mess <<hes>> made with satisfaction.
			<br><br>
			<<vaginalentranceejacstat>><<ejacstat>><<set $hygiene += 500>><<set $vaginaoutsidesemen += 1>>
			<<thighejacstat>><<ejacstat>><<set $hygiene += 500>><<set $thighsemen += 1>>
		<</switch>>
	<<elseif $NPCList[0].penis is "cheeks" and $worn.genitals.type.includes("chastity")>>
		<<He>> gasps as <<he>> cums onto your $worn.genitals.name. "I-I can't take this," <<he>> says. "I need to fill you. Th-there must be a skeleton key for chastity stuff."
		<br><br>
	<<elseif $NPCList[0].penis is "cheeks">>
		<<switch random(1, 7)>>
		<<case 1 2 3>>
			<<He>> shakes as <<he>> cums, withdrawing <<his>> cock from your cheeks and ejaculating onto your ass.
			<br><br>
			<<bottomejacstat>><<ejacstat>><<set $hygiene += 500>><<set $bottomsemen += 1>>
		<<case 4 5 6>>
			<<He>> palms your cheeks with <<his>> small hands and pulls you hard against <<himcomma>> ejaculating between your cheeks. You are surprised by <<his>> strength.
			<br><br>
			<!-- Really should be onto PCs back given position. Or hair maybe. Esp next one -->
			<<bottomejacstat>><<ejacstat>><<set $hygiene += 500>><<set $bottomsemen += 1>>
		<<case 7>>
			<<He>> squeezes your cheeks together and grunts as <<he>> cums, sending out massive load that covers your ass and drips down your crotch. "You make me feel alive."
			<br><br>
			<<bottomejacstat>><<ejacstat>><<set $hygiene += 1000>><<set $bottomsemen += 2>>
		<</switch>>
	<<elseif $NPCList[0].penis is "anusentrance" and $worn.genitals.type.includes("chastity") and $worn.genitals.anal_shield is 1>>
		<<He>> gasps as <<he>> cums onto your $worn.genitals.name. "I-I can't take this," <<he>> says. "I need to fill you. Th-there must be a skeleton key for chastity stuff."
		<br><br>
	<<elseif $NPCList[0].penis is "anusentrance">>
		<<switch random(1, 7)>>
		<<case 1 2 3>>
			<<He>> holds your asscheek with one hand and strokes <<his>> cock with the other, ejaculating onto your bottom. Semen drips down your butt and into your crack.
			<br><br>
			<<bottomejacstat>><<ejacstat>><<set $hygiene += 500>><<set $bottomsemen += 1>>
		<<case 4 5 6>>
			<<He>> strokes <<his>> cock and quietly ejaculates onto your ass. You feel semen dripping down your crack, and feel filthy inside.
			<br><br>
			<<bottomejacstat>><<ejacstat>><<set $hygiene += 500>><<set $bottomsemen += 1>>
		<<case 7>>
			<<He>> moans and strokes <<his>> cock as <<he>> cums, sending thick ropes of semen onto your ass and down your crotch.
			<br><br>
			<<bottomejacstat>><<ejacstat>><<set $hygiene += 1000>><<set $bottomsemen += 2>>
		<</switch>>
	<<elseif $NPCList[0].penis is "anusimminent" and $worn.genitals.type.includes("chastity") and $worn.genitals.anal_shield is 1>>
		<<He>> gasps as <<he>> cums onto your $worn.genitals.name. "I-I can't take this," <<he>> says. "I need to fill you. Th-there must be a skeleton key for chastity stuff."
		<br><br>
	<<elseif $NPCList[0].penis is "anusimminent">>
		<<switch random(1, 7)>>
		<<case 1 2 3>>
			<<He>> cums before <<he>> can penetrate your ass, ejaculating on the outside. Semen coats your ass and drips down your crack; <<he>> seems furious, but at <<himselfcomma>> shaking with anger.
			<br><br>
			<<bottomejacstat>><<ejacstat>><<set $hygiene += 500>><<set $bottomsemen += 1>>
		<<case 4 5 6>>
			<<He>> strokes <<his>> cock and ejaculates onto your ass before <<he>> can penetrate you, sending white streams of semen running down your crack; <<he>> seems upset.
			<br><br>
			<<bottomejacstat>><<ejacstat>><<set $hygiene += 500>><<set $bottomsemen += 1>>
		<<case 7>>
			<<He>> moans and strokes <<his>> cock as <<he>> cums, sending thick ropes of semen onto your ass and crotch. <<He>> seems disappointed but smiles as <<he>> looks at your drenched ass.
			<br><br>
			<<bottomejacstat>><<ejacstat>><<set $hygiene += 1000>><<set $bottomsemen += 2>>
		<</switch>>
	<<elseif $NPCList[0].penis is "anus">>
		<<switch random(1, 7)>>
		<<case 1 2 3>>
			<<He>> moans, pounding your ass mercilessly as <<he>> cums. You whimper as you feel unwelcome semen streaming in your asshole.
			<br><br>
			<<analejacstat>><<ejacstat>><<set $hygiene += 500>><<set $anussemen += 1>>
		<<case 4 5 6>>
			<<He>> wordlessly grabs your hair, pulling you hard onto <<his>> cock as <<he>> cums. Semen fills you as you cry out. "I know you'll come to love me as much as I love you."
			<br><br>
			<<analejacstat>><<ejacstat>><<set $hygiene += 500>><<set $anussemen += 1>>
		<<case 7>>
			<<He>> convulses and with a final shove, cums in your ass. Thick waves of semen pump into you. <span class="blue">You gasp as your ass overflows;</span> cum oozes from your ass and runs down your legs. "No one will ever love you as much as I do."
			<br><br>
			<<analejacstat>><<ejacstat>><<set $hygiene += 500>><<set $anussemen += 1>>
			<<thighejacstat>><<ejacstat>><<set $hygiene += 500>><<set $thighsemen += 1>>
		<</switch>>
	<<elseif $NPCList[0].penis is "chest">>
		<<switch random(1, 7)>>
		<<case 1 2 3>>
			<<He>> pinches your <<breasts>> together on <<his>> cock as <<he>> cums, ejaculating onto them. "I guess I'm marking my territory" <<he>> says with a smile.
			<br><br>
			<<chestejacstat>><<ejacstat>><<set $hygiene += 500>><<set $chestsemen += 1>>
		<<case 4 5 6>>
			<<He>> strokes the tip of <<his>> cock between your <<breasts>> and ejaculates onto them. Your <<breasts>> cool as semen slides down your body.
			<br><br>
			<<chestejacstat>><<ejacstat>><<set $hygiene += 500>><<set $chestsemen += 1>>
		<<case 7>>
			<<He>> puts <<his>> hand behind your neck, mashing your face against <<his>> body and bearing down on your <<breasts>>; semen shoots between and covers your <<if $position is "missionary">>face<<faceejacstat>><<ejacstat>><<set $hygiene += 500>><<set $facesemen += 1>><<else>>stomach<<tummyejacstat>><<ejacstat>><<set $hygiene += 500>><<set $tummysemen += 1>><</if>> as you gasp.
			<br><br>
			<<chestejacstat>><<ejacstat>><<set $hygiene += 500>><<set $chestsemen += 1>>
		<</switch>>
	<<elseif $NPCList[0].penis is "mouthentrance">>
		<<switch random(1, 7)>>
		<<case 1 2 3>>
			<<He>> grabs your chin with one hand and strokes <<his>> cock with the other, ejaculating onto your face. "It's OK because we belong to each other."
			<br><br>
			<<faceejacstat>><<ejacstat>><<set $hygiene += 500>><<set $facesemen += 1>>
		<<case 4 5 6>>
			<<He>> strokes <<his>> cock and palming your head, ejaculates onto your face. Warm cums drips down your forehead and nose. <<He>> licks off your face.
			<br><br>
		<<case 7>>
			<<He>> grasps your hair tightly in <<his>> small fist, stroking <<his>> cock while aiming straight at your mouth. <span class="pink">You splutter and gag as thick ropes of cum push past your clenched lips and into your mouth.</span> "I'm sorry but it's your fault; you make me lose control of myself."
			<br><br>
			<<faceejacstat>><<ejacstat>><<set $hygiene += 500>><<set $facesemen += 1>>
			<<oralejacstat>><<ejacstat>><<set $hunger -= 200>><<set $thirst -= 200>><<set $mouthsemen += 1>>
		<</switch>>
	<<elseif $NPCList[0].penis is "mouthimminent">>
		<<switch random(1, 7)>>
		<<case 1 2 3>>
			<<He>> grips hair at the nape your neck, ejaculating onto your lips as you barely brush against the tip of <<his>> penis. <<His>> face reddens in silent anger.
			<br><br>
			<<faceejacstat>><<ejacstat>><<set $hygiene += 500>><<set $facesemen += 1>>
		<<case 4 5 6>>
			<<He>> brushes <<his>> cock against your face, causing <<him>> to ejaculate early. Cums drips down your lips and chin; frustrated, <<he>> stamps <<his>> feet in tantrum.
			<br><br>
			<<oralejacstat>><<ejacstat>><<set $hunger -= 200>><<set $thirst -= 200>><<set $mouthsemen += 1>>
		<<case 7>>
			<<He>> grasps your hair but in <<his>> excitement cums before <<he>> can enter your mouth. Thick ropes of cum cover your cheeks, chin, and into your waiting mouth. <<He>> looks frustrated.
			<br><br>
			<<faceejacstat>><<ejacstat>><<set $hygiene += 500>><<set $facesemen += 1>>
			<<oralejacstat>><<ejacstat>><<set $hunger -= 200>><<set $thirst -= 200>><<set $mouthsemen += 1>>
		<</switch>>
	<<elseif $NPCList[0].penis is "mouth">>
		<<switch random(1, 7)>>
		<<case 1 2 3>>
			<<He>> grabs you under the chin with one hand and by your hair with the other, shoving <<his>> cock down your throat as <<he>> cums. You gag and retch as unwanted semen streams down your throat, forcing you to swallow.
			<br><br>
			<<oralejacstat>><<ejacstat>><<set $hunger -= 200>><<set $thirst -= 200>><<set $mouthsemen += 1>>
		<<case 4 5 6>>
			<<He>> grabs you by the shoulder in one hand and grasps the base of <<his>> cock in the other, quietly ejaculating into your mouth. You gag as cum fills your mouth and drips down your throat.
			<br><br>
			<<oralejacstat>><<ejacstat>><<set $hunger -= 200>><<set $thirst -= 200>><<set $mouthsemen += 1>>
		<<case 7>>
			<<He>> palms your head, wildly thrusting <<his>> cock down your throat as <<he>> cums. <span class="pink">You whimper as semen streams down your throat,</span> fills your mouth and covers your face as <<he>> flails. "I just get so excited when you're with me."
			<br><br>
			<<faceejacstat>><<ejacstat>><<set $hygiene += 500>><<set $facesemen += 1>>
			<<oralejacstat>><<ejacstat>><<set $hunger -= 200>><<set $thirst -= 200>><<set $mouthsemen += 1>>
		<</switch>>
	<<elseif $NPCList[0].penis is "feet">>
		<<switch random(1, 7)>>
		<<case 1 2 3>>
			<<He>> pushes your feet together and groans as <<he>> cums. Ejaculate covers your feet.
			<br><br>
			<<feetejacstat>><<ejacstat>><<set $hygiene += 500>><<set $feetsemen += 1>>
		<<case 4 5 6>>
			<<He>> quietly cums on your feet, slickening them with semen.
			<br><br>
			<<feetejacstat>><<ejacstat>><<set $hygiene += 500>><<set $feetsemen += 1>>
		<<case 7>>
			<<He>> grunts and thrusts <<his>> cock between your feet as <<he>> cums, splattering cum on your feet and legs in the process. <<He>> seems impressed with the mess.
			<br><br>
			<<feetejacstat>><<ejacstat>><<set $hygiene += 500>><<set $feetsemen += 1>>
			<<thighejacstat>><<ejacstat>><<set $hygiene += 500>><<set $thighsemen += 1>>
		<</switch>>
	<<elseif $NPCList[0].penis is "leftarm" and $NPCList[0].penis is "rightarm">>
		<<switch random(1, 7)>>
		<<case 1 2 3>>
			<<He>> groans as <<he>> cums, penis pulsing in your hands, covering them both in cum.
			<br><br>
			<<handejacstat>><<ejacstat>><<set $hygiene += 500>><<set $leftarmsemen += 1>><<set $rightarmsemen += 1>>
		<<case 4 5 6>>
			<<He>> quietly cums on your hands, slickening them with semen.
			<br><br>
			<<handejacstat>><<ejacstat>><<set $hygiene += 500>><<set $leftarmsemen += 1>><<set $rightarmsemen += 1>>
		<<case 7>>
			<<He>> spasms and moans, shooting thick streams of cum. You are so intent on your work you don't notice <<his>> penis is aimed at your face, which is splattered with cum in the process. "I'm sorry but I guess it's OK because we belong to each other."
			<br><br>
			<<handejacstat>><<ejacstat>><<set $hygiene += 500>><<set $leftarmsemen += 1>><<set $rightarmsemen += 1>>
			<<faceejacstat>><<ejacstat>><<set $hygiene += 500>><<set $facesemen += 1>>
		<</switch>>
	<<elseif $NPCList[0].penis is "leftarm">>
		<<switch random(1, 7)>>
		<<case 1 2 3>>
			<<He>> groans as <<he>> cums, penis sliding hotly in your left hand and covering it with cum. Grabbing your hand by the wrist, <<he>> licks it clean.
			<br><br>
		<<case 3 4>>
			<<He>> spasms and moans, shooting thick streams of cum. You are so intent on keeping him occupied you don't notice <<his>> penis is aimed at your face, which is splattered with cum in the process.
			<br><br>
			<<handejacstat>><<ejacstat>><<set $hygiene += 500>><<set $leftarmsemen += 1>>
			<<faceejacstat>><<ejacstat>><<set $hygiene += 500>><<set $facesemen += 1>>
		<<case 6 7>>
			<<He>> spasms and moans, shooting thick streams of cum and splattering your chest in the process.
			<br><br>
			<<handejacstat>><<ejacstat>><<set $hygiene += 500>><<set $leftarmsemen += 1>>
			<<chestejacstat>><<ejacstat>><<set $hygiene += 500>><<set $chestsemen += 1>>
		<</switch>>
	<<elseif $NPCList[0].penis is "rightarm">>
		<<switch random(1, 7)>>
		<<case 1 2 3>>
			<<He>> groans as your work <<his>> shaft with your right hand, cumming as you give <<him>> a final squeeze; <<he>> flicks <<his>> cock clean on the ground.
			<br><br>
			<<handejacstat>><<ejacstat>><<set $hygiene += 500>><<set $rightarmsemen += 1>>
		<<case 4 5>>
			<<He>> spasms and moans, shooting thick streams of cum. You are so intent on keeping him occupied you don't notice <<his>> penis is aimed at your chest, which is splattered with cum in the process.
			<br><br>
			<<chestejacstat>><<ejacstat>><<set $hygiene += 500>><<set $chestsemen += 1>>
			<<handejacstat>><<ejacstat>><<set $hygiene += 500>><<set $rightarmsemen += 1>>
		<<case 6 7>>
			<<He>> grunts and shoots thick ropes of semen onto your hand, making an impressive mess.
			<br><br>
			<<handejacstat>><<ejacstat>><<set $hygiene += 500>><<set $rightarmsemen += 1>>
			<<oralejacstat>><<ejacstat>><<set $hunger -= 200>><<set $thirst -= 200>><<set $mouthsemen += 1>>
		<</switch>>
	<<elseif $NPCList[0].penis is 0>>
		<<switch random(1, 5)>>
		<<case 1>>
			<<He>> groans as <<he>> works <<his>> shaft and, giving <<his>> cock a final squeeze, ejaculates onto your tummy. "I love that we can do this together, don't you?"
			<br><br>
			<<tummyejacstat>><<ejacstat>><<set $hygiene += 500>><<set $tummysemen += 1>>
		<<case 2>>
			<<He>> rapidly rubs <<his>> cock and cums on the ground.
			<br><br>
		<<case 3>>
			<<He>> strokes <<his>> penis and, aiming at your ass, ejaculates on your bottom. <<He>> looks at your <<lewdness>> covered in <<his>> ejaculate and smiles.
			<br><br>
			<<bottomejacstat>><<ejacstat>><<set $hygiene += 500>><<set $bottomsemen += 1>>
		<<case 4>>
			<<He>> strokes <<his>> penis and moans, ejaculating on your <<breastsstop>>
			<br><br>
			<<chestejacstat>><<ejacstat>><<set $hygiene += 500>><<set $chestsemen += 1>>
		<<case 5>>
			<<He>> moans and rubs <<his>> cock wildly, sending cum flying all over your body. "I'm sorry, but I just lose control when you're near me."
			<br><br>
			<<chestejacstat>><<ejacstat>><<set $hygiene += 500>><<set $chestsemen += 1>>
			<<tummyejacstat>><<ejacstat>><<set $hygiene += 500>><<set $tummysemen += 1>>
		<</switch>>
	<<elseif $NPCList[0].penis is "otheranus">>
		<<switch random(1, 7)>>
		<<case 1 2 3>>
			<<He>> groans as you fuck <<his>> ass; ejaculating on the ground. "I love how you make me feel."
			<br><br>
			<<faceejacstat>><<ejacstat>><<set $hygiene += 500>><<set $facesemen += 1>>
		<<case 4 5>>
			<<He>> moans as you pound <<his>> ass, and ejaculates on the ground.
			<br><br>
		<<case 6 7>>
			<<He>> sighs as <<he>> ejaculates onto <<his>> own chest.
			<br><br>
		<</switch>>
	<<elseif ($NPCList[0].penis is "otheranusfrot" or $NPCList[0].penis is "otheranusentrance" or $NPCList[0].penis is "otheranusimminent") and $worn.genitals.type.includes("chastity")>>
		<<He>> gasps as <<he>> cums onto your $worn.genitals.name. "I-I can't take this," <<he>> says. "I need to fill you. Th-there must be a skeleton key for chastity stuff."
		<br><br>
	<<elseif $NPCList[0].penis is "otheranusfrot" or $NPCList[0].penis is "otheranusentrance" or $NPCList[0].penis is "otheranusimminent">>
		<<switch random(1, 7)>>
		<<case 1 2 3>>
			<<He>> noisily cums as you fuck <<his>> cheeks, digging <<his>> fingers into your ass from behind and grinding your cock against <<his>> ass to finish. "Why didn't you fuck me? Am I not good enough for you?"
			<br><br>
		<<case 4 5>>
			<<He>> moans as you rub against <<his>> anus, and ejaculates on the ground. <<He>> begins crying, "Why don't you fuck me? Is there something wrong with me? Tell me so I can fix it!"
			<br><br>
		<<case 6 7>>
			<<He>> sighs as <<he>> ejaculates onto <<his>> own chest. <<He>> seems sad rather than spent.
			<br><br>
		<</switch>>
	<!-- Special case male PC being orally serviced by male NPC with no other contact -->
	<<elseif $NPCList[0].mouth is "penis">>
		<<switch random(1, 7)>>
		<<case 1 2 3>>
			<<He>> cums as you fuck <<his>> mouth; groaning as <<he>> ejaculates on the ground. "I'm sorry, I just can't take anymore."
			<br><br>
			<<tummyejacstat>><<ejacstat>><<set $hygiene += 500>><<set $tummysemen += 1>>
		<<case 4 5>>
			<<He>> cums on the ground as you fuck <<his>> mouth; <<he>> pulls away abruptly. "Please stop, I've had enough."
			<br><br>
		<<case 6 7>>
			<<He>> grabs your ass in <<his>> hands, pulling your cock into <<his>> throat; <<he>> ejaculates on <<his>> chest as <<he>> throats your <<genitalsstop>>
			<br><br>
		<</switch>>
	<<elseif $NPCList[0].penis is "othermouth">>
		<<He>> shakes with arousal as <<he>> cums, wiping <<his>> wet face clean on your body.
		<br><br>
	<</if>>
<</if>>

<!-- No finishing moves for Kylar... Out of character given size and personality? Maybe something creepy with a knife? -->

<</nobr>><</widget>>