{
    "\"Disable Debug Lines\"": "\"디버그 라인 비활성화\"",
    "\"Enable Debug Lines\"": "\"디버그 라인 활성화\"",
    "\"Go back to the entrance\"": "\"입구로 돌아가\"",
    "\"Look around the Museum\"": "\"박물관 둘러보기\"",
    "\"N-No. I submit.\"": "\"아니, 제출합니다.\"",
    "\"Reset\"": "\"초기화\"",
    "\"Save Set\"": "\"세이브 세트\"",
    "\"Temp Save\"": "\"임시 저장\"",
    "\"They're Complimentary\" (Leave)": "\"그들은 무료\"(나가기)",
    "'That's me!'": "'그게 나야!'",
    "Accept defeat with grace": "은혜로 패배를 받아들이십시오",
    "Accuse Robin of weakness": "로빈의 약점 고발",
    "Act aloof": "냉담한 행동",
    "Act cute": "귀여워",
    "Act nonchalant": "무심코 행동",
    "Add all items and send": "모든 항목을 추가하고 보내기",
    "Add outfits and send": "의상을 추가하고 보내기",
    "Add your own flair": "나만의 감각 추가",
    "Admire": "감탄",
    "Admit your secret": "당신의 비밀을 인정하십시오",
    "Adopt mating posture": "짝짓기 자세를 채택하십시오",
    "Agree to ducking stool demonstration": "더킹 스툴 데모에 동의",
    "Agree to lower price": "더 낮은 가격에 동의",
    "Agree to wood horse demonstration": "목마 시연에 동의",
    "Agree to work in normal clothes": "평범한 옷을 입는 것에 동의하십시오",
    "Agree to work in the apron": "앞치마 작업에 동의",
    "All": "모두",
    "All Skills": "모든 기술",
    "All Skills Super": "모든 스킬 슈퍼",
    "Allow examination": "검사 허용",
    "Allow it": "허용",
    "Allow them to Surround you": "그들이 당신을 둘러싸도록 허용",
    "Almost Destroy Lowerclothes": "Lowerclothes 거의 파괴",
    "Almost Destroy Underclothes": "속옷을 거의 파괴",
    "Almost Destroy Underupperclothes": "속옷을 거의 파괴",
    "Almost Destroy Upperclothes": "상복을 거의 파괴",
    "Aloof": "쌀쌀한",
    "Amber": "호박색",
    "Angel build down": "엔젤 빌드 다운",
    "Angel build up": "엔젤 빌드 업",
    "Answer evasively": "회피 적으로 답변",
    "Answer yourself": "스스로 대답 해",
    "Apologise with lewd": "음란 한 사과",
    "Appointment": "약속",
    "Approach flame": "불꽃 접근",
    "Approach the Display Cabinet": "디스플레이 캐비닛에 접근",
    "Approach the couple": "부부에게 접근",
    "Approach the figure": "그림에 접근",
    "Approach them": "그들에게 접근",
    "Arousal": "각성",
    "Arousal down": "아래로 각성",
    "Ask Alex for something to dry with (0:05)": "Alex에게 건조 할 것을 요청하십시오 (0:05).",
    "Ask Eden to undo your bindings (0:01)": "Eden에게 바인딩을 취소하도록 요청하십시오 (0:01).",
    "Ask Leighton To Join": "Leighton에 가입 요청",
    "Ask Remy for something to cover with": "Remy에게 커버 할 내용을 요청하세요.",
    "Ask River for help with maths competition": "River에게 수학 경쟁에 대한 도움을 요청하십시오.",
    "Ask Robin to try on the boy's vampire costume": "로빈에게 소년의 뱀파이어 의상을 입어달라고 요청하세요.",
    "Ask Robin to try on the girl's witch costume": "Robin에게 소녀의 마녀 의상을 입어달라고 요청하세요.",
    "Ask about Trial": "평가판에 대해 문의",
    "Ask about a spring": "봄에 대해 물어보세요",
    "Ask about arrowhead": "화살촉에 대해 문의",
    "Ask about box": "상자에 대해 문의",
    "Ask about candlestick": "촛대에 대해 물어보세요",
    "Ask about crystal": "크리스탈에 대해 물어보세요",
    "Ask about dagger": "단검에 대해 문의",
    "Ask about gem": "보석에 대해 문의",
    "Ask about gold chastity belt": "금 정조대에 대해 문의",
    "Ask about gold necklace": "금 목걸이에 대해 물어보세요",
    "Ask about horn": "경적에 대해 문의",
    "Ask about ivory necklace": "아이보리 목걸이에 대해 물어보세요",
    "Ask about silver brooch": "실버 브로치에 대해 문의",
    "Ask about silver ring": "은반지 문의",
    "Ask about strange object": "이상한 물건에 대해 물어보세요",
    "Ask about the brass statuette": "황동 조각상에 대해 물어보세요",
    "Ask about the copper compass": "구리 나침반에 대해 물어보세요",
    "Ask about the cup": "컵에 대해 물어보세요",
    "Ask about the grenade": "수류탄에 대해 물어보세요",
    "Ask about the incense burner": "향로에 대해 물어보세요",
    "Ask about the rods": "막대에 대해 물어보세요",
    "Ask for Raise": "레이즈 요청",
    "Ask for a thank you": "감사합니다",
    "Ask for help breaking into the police computer": "경찰 컴퓨터에 침입하여 도움을 요청하십시오.",
    "Ask for help covering your tracks": "트랙을 덮는 데 도움을 요청하십시오.",
    "Ask for more than they're worth": "가치있는 것보다 더 많은 것을 요구하십시오",
    "Ask for the chastity cage": "순결 새장을 요청하십시오",
    "Ask the teacher for help": "선생님에게 도움을 요청하세요",
    "Ask to chat": "채팅 요청",
    "Ask to go along": "함께 가도록 요청",
    "Ask to see": "보도록 요청",
    "Attack the bullies": "괴롭힘을 공격",
    "Attempt trial": "시도 시도",
    "Avery Date": "에이버리 날짜",
    "Awareness down": "의식 저하",
    "Awareness up": "인식 향상",
    "Back away": "물러서",
    "Back down": "뒤로 물러서",
    "Back down (0:30)": "뒤로 물러 서기 (0:30)",
    "Back out of the repair": "수리에서 다시",
    "Back out of the sale": "판매 종료",
    "Back to sleep": "다시 수면",
    "Bailey Test": "베일리 테스트",
    "Balls down": "아래로 공",
    "Balls up": "공 위로",
    "Bathroom and Showers (0:01)": "욕실 및 샤워 (0:01)",
    "Bathroom and showers (0:01)": "욕실 및 샤워 실 (0:01)",
    "Bear": "곰",
    "Beast Gang Test": "비스트 갱 테스트",
    "Beast Rape Me": "Beast Rape Me",
    "Become Alluring": "매력적이 되십시오",
    "Bend over and put the box down gently": "구부리고 상자를 부드럽게 내려 놓습니다.",
    "Best leave them alone": "그들을 내버려 두는 것이 가장 좋습니다.",
    "Black Wolf Forced": "검은 늑대 강제",
    "Boo": "우우",
    "Booze": "술",
    "Bound Left Arm": "바운드 왼팔",
    "Bound Right Arm": "바운드 오른팔",
    "Brag": "자랑거리",
    "Break through the web": "웹 돌파",
    "Breasts down": "아래로 가슴",
    "Breasts up": "가슴 위로",
    "Briar Pay Refuse": "브라 이어 페이 거부",
    "Brothel Show Swarm": "매음굴 쇼 무리",
    "Brush them away": "털어 내세요",
    "Bully Timer": "깡패 타이머",
    "Bus Rape": "버스 강간",
    "Butt down": "엉덩이 아래로",
    "Butt up": "엉덩이",
    "Capsize the boat": "보트 전복",
    "Catch (0:10)": "잡기 (0:10)",
    "Catch some sleep": "잠을 좀 잡아",
    "Challenge": "도전",
    "Challenge to drinking contest": "음주 대회에 도전",
    "Change mind and go home": "마음을 바꾸고 집으로 가십시오",
    "Change the subject": "주제를 바꾸다",
    "Charge": "요금",
    "Chase after it": "추격",
    "Chase anwyay": "어쨌든 체이스",
    "Chase anyway": "어쨌든 체이스",
    "Chastity Belt": "정조대",
    "Chastity Parasite": "순결 기생충",
    "Cheat": "사기",
    "Check it out ": "확인 해봐",
    "Cheer Robin up": "로빈 응원",
    "Cheer from a distance": "멀리서 응원",
    "Chest": "가슴",
    "Chest Parasite": "가슴 기생충",
    "Choose something cheap": "싼 것을 선택하십시오",
    "Choose something expensive": "비싼 것을 선택하십시오",
    "Cinema (£15 2:00)": "영화 (£ 15 2:00)",
    "Clean Robin": "클린 로빈",
    "Clean rooms (1:00)": "클린 룸 (1:00)",
    "Clear the debris (0:30)": "잔해물 치우기 (0:30)",
    "Clear the debris then crawl through the hole": "파편을 치우고 구멍을 기어",
    "Clear the yard (0:20)": "마당 정리 (0:20)",
    "Climb": "상승",
    "Climb back down": "다시 아래로 올라가",
    "Climb down to the water (0:01)": "물로 내려 가기 (0:01)",
    "Climb onto the docks (0:02)": "부두로 올라 가기 (0:02)",
    "Climb onto the rocks (0:02)": "바위 위로 올라 가기 (0:02)",
    "Climb out": "기어 나오다",
    "Climb out (0:05)": "나가기 (0:05)",
    "Climb over the fence (0:05)": "울타리 너머로 올라 가기 (0:05)",
    "Climb the fence to safety": "울타리를 안전하게 올라 가세요",
    "Climb up (0:30)": "올라 가기 (0:30)",
    "Clit": "Clit",
    "Clothing Shop": "옷가게",
    "Collar": "칼라",
    "Come up for air": "공기를 위해 올라와",
    "Comfort": "위로",
    "Comfort Robin": "컴포트 로빈",
    "Comfort and untie": "편안함과 풀기",
    "Commercial alleyways (0:05)": "상업 골목길 (0:05)",
    "Compete fairly": "공정하게 경쟁",
    "Compete for their attention": "그들의 관심을 끌기 위해 경쟁하세요",
    "Complain (0:05)": "불만 (0:05)",
    "Complain (0:10)": "불평 (0:10)",
    "Compliment": "경의",
    "Confide and cry (1:00)": "자신감과 외침 (1:00)",
    "Confident Brag": "자신감 자랑",
    "Confidently": "자신있게",
    "Confirm the repair and pay the £50 deposit": "수리 확인 및 £ 50 보증금 지불",
    "Confirm the sale and pay the £50 deposit": "판매를 확인하고 £ 50 보증금을 지불하십시오",
    "Continue Praying (1:00)": "계속기도하기 (1:00)",
    "Continue anyway": "어쨌든 계속",
    "Continue feeding (0:05)": "계속 먹이기 (0:05)",
    "Continue teasing": "계속 놀림",
    "Continue watching": "계속 시청",
    "Continue working": "계속 작업",
    "Continue your walk ": "계속 걷기",
    "Converse": "반대",
    "Cover yourself (0:15)": "몸을 가리십시오 (0:15)",
    "Cover yourself and continue": "자신을 숨기고 계속하십시오",
    "Cover yourself in whipped cream and walk to the park": "휘핑 크림으로 몸을 감싸고 공원으로 걸어가십시오.",
    "Crate Worms": "크레이트 웜",
    "Crawl through the hole": "구멍을 통해 기어",
    "Creature": "생물",
    "Creatures": "생물",
    "Crime": "범죄",
    "Cross": "가로 질러 가다",
    "Cry (0:05)": "울음 (0:05)",
    "Cry (1:00)": "외침 (1:00)",
    "Cut your binds": "당신의 결속을 잘라",
    "Cute": "귀엽다",
    "Damage Chastity": "순결 손상",
    "Damage Lowerclothes": "데미지 로워",
    "Damage Underclothes": "손상 속옷",
    "Damage Underupperclothes": "속옷 손상",
    "Damage Upperclothes": "데미지 어퍼",
    "Dance": "댄스",
    "Dance (0:05)": "댄스 (0:05)",
    "Danube Spiders": "다뉴브 거미",
    "Dark Blue": "진한 파란색",
    "Dash to the clothing Shop (0:01)": "의류 매장으로 돌진 (0:01)",
    "DeTraumatise me": "나를 비 위상",
    "Deal": "거래",
    "Deal with it": "받아 들여",
    "Decline and go on your way": "거절하고 당신의 길을 가십시오",
    "Deep forest": "깊은 숲",
    "Defend your decision": "결정을 지켜라",
    "Defiance": "도전",
    "Defy": "무시",
    "Delete Evidence (0:15)": "증거 삭제 (0:15)",
    "Delinquency": "과실",
    "Demand Payment": "수요 지불",
    "Demand the money": "돈을 요구하십시오",
    "Demand valuables": "귀중품 요구",
    "Demand £100 first": "먼저 £ 100 요구",
    "Demand £20 first": "먼저 20 파운드를 요구하세요",
    "Demand £50 first": "먼저 £ 50 요구",
    "Demon Encounter": "악마 만남",
    "Demon build down": "악마 구축",
    "Demon build up": "악마 빌드 업",
    "Demonstrate ducking stool (1:00)": "더킹 스툴 시연 (1:00)",
    "Demonstrate wooden horse (1:00)": "목마 시연 (1:00)",
    "Descend": "하강",
    "Despair": "절망",
    "Destress": "스트레스 해소",
    "Destroy Swimming Outfits": "수영 의상 파괴",
    "Detention": "구류",
    "Deviancy": "편차",
    "Disable Hands": "손 비활성화",
    "Dismiss": "버리다",
    "Distract Kylar": "Kylar주의 산만",
    "Distract it": "산만하게",
    "Distract them": "그들을 산만하게",
    "Distract yourself with pain": "고통으로주의를 돌리십시오",
    "Dive (0:01)": "다이빙 (0:01)",
    "Dive through the drain": "배수구를 통해 다이빙",
    "Do Nothing": "아무것도하지 마세요",
    "Do as asked": "요청대로 수행",
    "Do nothing": "아무것도하지 마세요",
    "Do your best to follow them": "그들을 따르기 위해 최선을 다하십시오",
    "Dodge": "다지",
    "Dog": "개",
    "Dolphin": "돌고래",
    "Dolphin Sex Me": "돌고래 섹스 나",
    "Don't Drink": "마시지 마십시오",
    "Don't Hide": "숨기지 마",
    "Don't bet anything": "아무것도 걸 지마",
    "Don't give report": "신고하지 마세요",
    "Don't look": "보지마",
    "Don't open it": "열지 마",
    "Don't steal": "훔치지 마",
    "Don't struggle": "투쟁하지 마십시오",
    "Don't take part": "참여하지 마십시오",
    "Don't tell anyone": "아무에게도 말하지 마",
    "Don't undress (0:01)": "옷을 벗지 마십시오 (0:01).",
    "Double Rape Me": "더블 레이프 미",
    "Downstairs": "아래층",
    "Drag Robin down": "Robin을 아래로 드래그",
    "Drain ocean exit": "바다 출구 배수",
    "Drench me": "날 적셔 줘",
    "Dress and ask for a fresh one": "옷을 입고 신선한 것을 요청하십시오.",
    "Dress before leaving": "떠나기 전에 복장",
    "Dressing Room (0:01)": "탈의실 (0:01)",
    "Dressing room (0:01)": "탈의실 (0:01)",
    "Drink": "음주",
    "Drink Avery's preferred wine": "에이버리가 선호하는 와인 마시기",
    "Drink booze (£10 0:05)": "술 마시기 (£ 10 0:05)",
    "Drink herbal booze (£20 0:05)": "허브 술 마시기 (£ 20 0:05)",
    "Drop down the chute": "낙하산 드롭 다운",
    "Drop the box and protect yourself": "상자를 버리고 자신을 보호하십시오",
    "Drop to your knees": "무릎을 꿇고",
    "Drugged": "마약",
    "Eat it anyway": "어쨌든 먹어",
    "Eat lunch": "점심을 먹다",
    "Eat one": "하나 먹어",
    "Eat the Pill": "알약 먹기",
    "Eat the apples": "사과 먹기",
    "Eavesdrop": "엿듣다",
    "Eden Start": "에덴 시작",
    "Eden's Cabin (0:10)": "에덴의 오두막 (0:10)",
    "Embolden": "대담하게",
    "Embrace": "포옹",
    "Embrace (0:10)": "포옹 (0:10)",
    "Embrace and kiss": "포옹과 키스",
    "Enable basic Pregnancy features": "기본 임신 기능 활성화",
    "Encourage": "북돋우다",
    "Encourage them to buy something": "무언가를 사도록 장려하십시오.",
    "Encourage them to tidy the garden (1:00)": "그들에게 정원을 정리하도록 격려하십시오 (1:00)",
    "Encourage them to tidy the quarters (1:00)": "그들이 숙소를 정리하도록 장려하십시오 (1:00)",
    "End Event": "이벤트 종료",
    "Endure (0:02)": "인내 (0:02)",
    "Endure (0:03)": "인내 (0:03)",
    "Endure (0:05)": "인내 (0:05)",
    "Endure it": "참아",
    "Engage": "끌다",
    "Enjoy it": "그것을 즐기십시오",
    "Enslave Me": "나를 노예로",
    "Enter": "시작하다",
    "Enter the cabin": "기내에 입장",
    "Enter the forest": "숲에 들어가",
    "Enter town (0:30)": "마을 진입 (0:30)",
    "Enthusiastically rub": "열정적으로 문질러",
    "Escape the compound": "화합물 탈출",
    "Evasive": "둘러대는",
    "Examine": "조사",
    "Examine Eden in return": "대가로 에덴을 조사하십시오",
    "Examine Lichen": "이끼 검사",
    "Examine a ladder leading down": "아래로 이어지는 사다리 조사",
    "Examine the back of the cave": "동굴 뒤쪽을 살펴보세요",
    "Examine the cash register": "금전 등록기 조사",
    "Examine the office building": "사무실 건물 조사",
    "Expand": "넓히다",
    "Faceplant": "Faceplant",
    "Fame": "명성",
    "Fame Sex": "명성 섹스",
    "Feed": "먹이다",
    "Feign Innocence": "가짜 무죄",
    "Fertilise New Eggs": "새 계란 수정",
    "Finish up": "마무리",
    "Flash": "플래시",
    "Flirt and fuck": "바람둥이와 씨발",
    "Flirtatiously": "유쾌하게",
    "Follow Avery's Lead": "Avery의 리드를 따르십시오",
    "Follow suit": "소송을 따르십시오",
    "Frame Leighton (0:10)": "프레임 레이튼 (0:10)",
    "Frame Whitney (0:10)": "프레임 휘트니 (0:10)",
    "Free procedure (0:20)": "무료 절차 (0:20)",
    "Free your arms": "팔을 자유롭게",
    "Frigify": "냉장",
    "Full Lewd": "완전 음란",
    "Full Spray": "전체 스프레이",
    "Fungus-coated tunnel (0:05)": "곰팡이 코팅 터널 (0:05)",
    "Further out at sea": "바다에서 더 멀리",
    "Gang Rape Me w/ Audience": "청중과 갱 강간",
    "Gang Sex Me w/ Audience": "청중과 갱 섹스 나",
    "Gender": "성별",
    "Get Angry": "화 내기",
    "Get Changed, then walk home with Mason (0:40)": "옷을 갈아 입고 Mason과 함께 집으로 걸어갑니다 (0:40).",
    "Get Initial Mother Trait": "초기 어머니 특성 얻기",
    "Get Pregnant with a slime": "점액으로 임신",
    "Get Pregnant with a tentacle": "촉수로 임신하기",
    "Get Pregnant with a worm": "벌레로 임신",
    "Get Pregnant with an eel": "장어와 임신",
    "Get arrested": "체포",
    "Get back to work": "직장으로 돌아 가기",
    "Get changed and leave (0:01)": "갈아 입고 나가기 (0:01)",
    "Get closer still": "더 가까이가",
    "Get even": "균등하게",
    "Get food first (£20)": "먼저 음식을 얻으십시오 (£ 20)",
    "Get help": "도움 받기",
    "Get help (0:10)": "도움 받기 (0:10)",
    "Get in (0:15)": "들어가기 (0:15)",
    "Get out": "나가",
    "Get out. Now.": "나가. 지금.",
    "Get revenge": "복수하다",
    "Get the berries": "베리 가져 오기",
    "Get up": "일어나",
    "Ginger": "생강",
    "Give a discount": "할인 제공",
    "Give blessing (0:10)": "축복하기 (0:10)",
    "Give it a hand": "손을 줘",
    "Give it more": "더 줘",
    "Give nothing": "아무것도주지 않는다",
    "Give pointers": "포인터 제공",
    "Give report (0:20)": "신고하기 (0:20)",
    "Give the wrong answers": "틀린 답을 줘",
    "Give them a hand": "그들에게 손을 줘",
    "Give £300": "£ 300 제공",
    "Go deeper into the forest to retrieve the basket": "바구니를 꺼내려면 숲으로 더 깊이 들어가십시오.",
    "Go down": "내려가",
    "Go down the hole": "구멍을 내려가",
    "Go for a jog (0:30)": "조깅하기 (0:30)",
    "Go get changed": "갈아 입으십시오",
    "Go inside": "안으로 들어가",
    "Go into the water (0:02)": "물속으로 들어가기 (0:02)",
    "Go outside anyway": "어쨌든 밖으로 나가",
    "Go shopping (0:30)": "쇼핑하러 가기 (0:30)",
    "Go shopping for Halloween costumes (0:30)": "할로윈 의상 쇼핑하기 (0:30)",
    "Go somewhere together": "함께 어디로가",
    "Go swimming": "수영하러 가다",
    "Go through the alleyways (0:10)": "골목길 통과 (0:10)",
    "Go to Eden": "에덴으로 이동",
    "Go to the cabin (0:30)": "기내로 이동 (0:30)",
    "Go to your room (0:05)": "방으로 이동 (0:05)",
    "Go towards the sound of heavy machinery (0:10)": "중장비 소리를 향해 (0:10)",
    "Go towards the sound of traffic (0:10)": "교통 소리쪽으로 이동 (0:10)",
    "Go trick-or-treating (3:00)": "속임수 또는 치료하기 (3:00)",
    "Go upstairs (0:02)": "위층으로 이동 (0:02)",
    "Go willingly": "기꺼이가",
    "Go with Avery": "에이버리와 함께",
    "Go with them": "그들과 함께 가십시오",
    "Go with them (0:30)": "그들과 함께 가십시오 (0:30)",
    "Goo Me": "구미",
    "Goo Me Small": "구미 스몰",
    "Grab some towels and enter the boy's changing room": "수건을 좀 들고 소년의 탈의실에 들어가",
    "Green": "초록",
    "Grope back": "다시 모색",
    "Grow fringe": "프린지 성장",
    "Grow hair": "머리카락 키우기",
    "Guilt": "죄",
    "Hate me": "날 싫어",
    "Hazel": "엷은 갈색",
    "Help Alex clear a field (0:20)": "Alex가 필드를 지우도록 도와주세요 (0:20).",
    "Help Alex repair the perimeter (0:20)": "Alex가 주변을 복구하도록 도와주세요 (0:20).",
    "Help Her (0:10)": "그녀를 도와주세요 (0:10)",
    "Help them up": "그들을 도와주세요",
    "Hirsute": "다모",
    "History Class Pillory": "역사 수업 Pillory",
    "Hit the assailant over the head to save Darryl": "가해자를 머리 위로 쳐서 Darryl을 구하세요",
    "Hold on": "기다려",
    "Hold your breath": "숨을 참아",
    "Hole in wall": "벽에있는 구멍",
    "Honest": "정직한",
    "Horror": "공포",
    "Howl": "멀리서 짖는 소리",
    "Humiliate": "굴욕",
    "Hunt it": "사냥",
    "Hurry them up": "그들을 서둘러",
    "I'll buy one (0:20)": "하나 살게요 (0:20)",
    "I'm fine": "전 괜찮아요",
    "I'm interested": "내가 관심",
    "I'm not interested": "난 관심 없어",
    "Ignore them too": "그들도 무시하십시오",
    "Imprison Me": "나를 가두다",
    "Industrial alleyways (0:05)": "산업 골목길 (0:05)",
    "Insist they are real": "그들이 진짜라고 주장",
    "Intimidate": "협박",
    "Intimidate them": "그들을 협박",
    "Joke around with your partner": "파트너와 농담",
    "Jump": "도약",
    "Just endure it": "그냥 참아",
    "Just focus on the dissection": "해부에만 집중하세요",
    "Just help them up": "그들을 도와주세요",
    "Just wait (1:00)": "기다려주세요 (1:00)",
    "Just walk after Alex (0:02)": "Alex를 따라 걸어 가기 (0:02)",
    "Justify it": "정당화",
    "Keep all babies": "모든 아기를 유지",
    "Keep all parasites": "모든 기생충 유지",
    "Keep selected babies": "선택한 아기 유지",
    "Keep selected parasites": "선택한 기생충 유지",
    "Keep the money": "돈을 지켜라",
    "Keep up the pace": "속도 유지",
    "Kiss back": "다시 키스",
    "Kneel": "무릎",
    "Kylar Basement Rape": "Kylar 지하 강간",
    "Kylar Sex": "Kylar 섹스",
    "Leave them alone": "그들을 내버려 둬",
    "Leave them to work": "일에 맡기십시오",
    "Left": "왼쪽",
    "Leighton Forced": "레이튼 강제",
    "Leighton Office Spank": "레이튼 오피스 스 팽크",
    "Leighton Sex": "레이튼 섹스",
    "Let Avery order for you": "Avery가 주문 해드립니다.",
    "Let Eden continue": "에덴을 계속하자",
    "Let Eden have you": "Eden에게 당신을",
    "Let Kylar stay": "Kylar가 머물게하십시오",
    "Let Robin Help": "Robin이 도와 드리겠습니다.",
    "Let Robin Help (0:10)": "Robin의 도움 받기 (0:10)",
    "Let Robin strip you": "로빈이 당신을 제거하게",
    "Let it continue": "계속하자",
    "Let it happen (0:20)": "하자 (0:20)",
    "Let it happen (3:00)": "하자 (3:00)",
    "Let it swallow you": "당신을 삼키게하십시오",
    "Let the black wolf decide": "검은 늑대가 결정하자",
    "Let the black wolf decide (1:00)": "검은 늑대가 결정하자 (1:00)",
    "Let the bouncers rescue you": "경비원이 당신을 구해줍니다",
    "Let the cattle out (0:20)": "소를 내보내십시오 (0:20).",
    "Let the centaur out (0:20)": "켄타우로스를 내보내십시오 (0:20)",
    "Let the chickens out (0:20)": "닭 꺼내기 (0:20)",
    "Let the horses out (0:20)": "말을 내보내십시오 (0:20).",
    "Let the pigs out (0:20)": "돼지를 내보내십시오 (0:20).",
    "Let them": "그들을 보자",
    "Let them cop a feel": "그들이 느끼게 해줘",
    "Let them explore": "탐험하게하세요",
    "Let them go (0:20)": "놓아 줘 (0:20)",
    "Let them keep it": "그들이 그것을 유지하게",
    "Let them pour, but don't drink it": "부어 주되 마시지는 마세요",
    "Let them see you": "그들이 당신을 보자",
    "Let your colleagues answer": "동료가 대답하게하십시오",
    "Let your tears flow": "눈물을 흘리십시오",
    "Let yourself be pulled off": "너 자신을 뽑아 라.",
    "Lewd Play": "음란 한 플레이",
    "Lick enthusiastically": "열정적으로 핥아",
    "Lick grudgingly": "마지 못해 핥아",
    "Lick lovingly": "사랑스럽게 핥아",
    "Lie on the straw and seduce it": "빨대 위에 누워 유혹 해",
    "Lie still": "가만히 누워",
    "Lift Alex's skirt": "Alex의 치마를 들어 올리십시오.",
    "Light Blue": "하늘색",
    "Listen (0:10)": "듣기 (0:10)",
    "Listen politely (0:10)": "정중하게 듣기 (0:10)",
    "Lizard": "도마뱀",
    "Look around": "주위를 둘러 봐",
    "Look at it": "봐봐",
    "Look away and pick up the sponge": "멀리 보시고 스펀지를 집으세요",
    "Look away and relax": "멀리 바라보고 휴식을 취하십시오.",
    "Look behind the dark screen": "어두운 화면 뒤를 봐",
    "Look beneath it": "그 아래를 봐",
    "Look beneath the decaying rack": "썩어가는 선반 아래를보세요",
    "Look closer": "자세히 살펴",
    "Look for mushrooms (1:00)": "버섯 찾기 (1:00)",
    "Look for someone else (0:01)": "다른 사람 찾기 (0:01)",
    "Look for someone else (0:15)": "다른 사람 찾기 (0:15)",
    "Look in the dusky drawer": "어스레 한 서랍을 봐",
    "Look on the spindly hat stand": "뾰족한 모자 스탠드를 봐",
    "Look on the strange ironing board": "이상한 다리미판 좀 봐",
    "Look out the hole": "구멍을 봐",
    "Lose them in the crowd": "군중 속에서 패배",
    "Lost and scared": "길을 잃고 무서워",
    "Lure the chickens away from your bottoms": "닭을 바닥에서 멀리 유인하십시오",
    "Main floor (0:02)": "메인 플로어 (0:02)",
    "Maintain your dignity as best you can": "최선을 다해 품위를 유지하십시오",
    "Maintenance cupboard (0:01)": "유지 보수 찬장 (0:01)",
    "Make Creature": "생물 만들기",
    "Make Rape": "강간",
    "Make Robin a flower crown (0:10)": "로빈을 꽃 왕관으로 만들기 (0:10)",
    "Make a large donation (£25)": "큰 기부 (£ 25)",
    "Make a mad dash": "미친 돌진 만들기",
    "Make a reasonable donation (£5)": "합리적인 기부 (£ 5)",
    "Make a skirt out of plants (0:20)": "식물로 치마 만들기 (0:20)",
    "Make a skirt out of plants and twigs (0:20)": "식물과 나뭇 가지로 치마 만들기 (0:20)",
    "Make a skirt out of seaweed (0:20)": "해초로 치마 만들기 (0:20)",
    "Make a small donation (£1)": "소액 기부 (£ 1)",
    "Make a top out of plants (0:20)": "식물로 꼭대기 만들기 (0:20)",
    "Make a top out of seaweed (0:20)": "해초로 꼭대기 만들기 (0:20)",
    "Make all beasts female animals": "모든 짐승을 암컷으로 만드십시오",
    "Make all beasts male animals": "모든 짐승을 수컷 동물로 만드십시오.",
    "Make all beasts monster boys": "모든 짐승 괴물 소년 만들기",
    "Make all beasts monster cuntboys": "모든 짐승 괴물 cuntboys 만들기",
    "Make all beasts monster dickgirls": "모든 짐승 몬스터 dickgirls 만들기",
    "Make all beasts monster girls": "모든 짐승 괴물 소녀 만들기",
    "Make excuses": "변명",
    "Make sheet rope (1:00)": "시트 로프 만들기 (1:00)",
    "Make something new (0:20)": "새로운 것을 만드세요 (0:20)",
    "Make sure it's okay (0:05)": "괜찮은지 확인 (0:05)",
    "Make the usual breakfast (0:20)": "평상시 아침 식사 만들기 (0:20)",
    "Make them strip": "스트립 만들기",
    "Make your breasts ample": "가슴을 넉넉하게 만드세요",
    "Make your breasts budding": "가슴이 싹 트게",
    "Make your breasts enormous": "당신의 가슴을 엄청나게 만드십시오",
    "Make your breasts flat": "가슴을 평평하게 만드십시오.",
    "Make your breasts full": "가슴을 가득 채우십시오",
    "Make your breasts gigantic": "당신의 가슴을 거대하게 만드십시오",
    "Make your breasts huge": "가슴을 크게 만드세요",
    "Make your breasts large": "가슴을 크게 만드세요",
    "Make your breasts massive": "당신의 가슴을 거대하게 만드십시오",
    "Make your breasts modest": "가슴을 겸손하게 만드십시오",
    "Make your breasts pert": "당신의 가슴을 pert",
    "Make your breasts small": "가슴을 작게 만드세요",
    "Make your breasts tiny": "가슴을 작게 만드세요",
    "Make your penis average": "당신의 성기를 평균화하십시오",
    "Make your penis enormous": "당신의 성기를 거대하게 만드십시오",
    "Make your penis large": "당신의 성기를 크게 만드십시오",
    "Make your penis mini": "페니스 미니 만들기",
    "Make your penis small": "당신의 성기를 작게 만드십시오",
    "Make your penis tiny": "당신의 성기를 작게 만드십시오",
    "Mason's pond (0:05)": "메이슨의 연못 (0:05)",
    "Masturbate (0:20)": "자위 행위 (0:20)",
    "Match their bet (£60)": "베팅을 맞추세요 (£ 60)",
    "Mate": "항해사",
    "Max dock status": "최대 도크 상태",
    "Meditate": "꾀하다",
    "Meditate on your big breasts (1:00)": "큰 가슴에 대한 명상 (1:00)",
    "Meditate on your big penis (1:00)": "큰 성기에 대해 명상하기 (1:00)",
    "Meditate on your flat chest (1:00)": "납작한 가슴에서 명상하기 (1:00)",
    "Meditate on your small breasts (1:00)": "작은 가슴에서 명상하기 (1:00)",
    "Meditate on your small penis (1:00)": "작은 성기에 대한 명상 (1:00)",
    "Meek Compliment": "온유 한 칭찬",
    "Meow": "야옹",
    "Milk your penis": "당신의 성기를 착유하십시오",
    "Milk yourself": "직접 우유",
    "Min dock status": "최소 도크 상태",
    "Money": "돈",
    "Monster Rape Me": "몬스터 강간",
    "Month": "달",
    "Moo for attention (0:20)": "관심을 끄는 Moo (0:20)",
    "Move away": "떠나다",
    "Muddy Tunnel (0:05)": "진흙 터널 (0:05)",
    "Near the shore": "해안 근처",
    "Nevermind": "신경 쓰지 마",
    "Next ('+_hoursPassed+':'+ (_minutesPassed lt 10 ? \"0\" : \"\") + _minutesPassed + ')": "다음 ( '+ _hoursPassed +': '+ (_minutesPassed lt 10? \"0\": \"\") + _minutesPassed +')",
    "Next Tattoo": "다음 문신",
    "No Cost": "비용 없음",
    "No Deal": "거래 없음",
    "No time for rest": "쉴 시간이 없어",
    "Nod (2:00)": "끄덕임 (2:00)",
    "North to firepit (0:10)": "북쪽에서 화덕까지 (0:10)",
    "North to fishing rock (0:10)": "북쪽에서 낚시 바위까지 (0:10)",
    "North to shore (0:10)": "북쪽에서 해안으로 (0:10)",
    "North to waterfall (0:10)": "북쪽에서 폭포까지 (0:10)",
    "Not as scared as you": "너만큼 두렵지 않아",
    "Not now": "지금은 아니야",
    "Not yet (Take £80 and Leave)": "아직 안함 (80 파운드 받고 떠나기)",
    "Nothing": "아무것도",
    "Obey": "순종",
    "Observe your thoughts (1:00)": "생각 관찰 (1:00)",
    "Occupy a room (0:10)": "방 점유 (0:10)",
    "Offer Oral": "구두 제공",
    "Offer a drink (0:20) (£5)": "음료 제공 (0:20) (£ 5)",
    "Offer a drink (£5)": "음료 제공 (£ 5)",
    "Offer the basket of apples": "사과 바구니 제공",
    "Offer to buy the new basket (£20)": "새 바구니 구매 제안 (£ 20)",
    "Offer to dance for them instead": "대신 춤을 추겠다고 제안하세요",
    "Offer to help set up (0:30)": "설정 지원 제안 (0:30)",
    "Offer to help the envious boy for a fee": "부러워하는 소년을 유료로 돕겠다 고 제안",
    "Pack of 14 penis growth": "14 개의 음경 성장 팩",
    "Pack of 14 penis growth blocker": "음경 성장 차단제 14 개 팩",
    "Pack of 14 penis reduction": "14 개의 페니스 감소 팩",
    "Paid Procedure (£250 0:10)": "유료 절차 (£ 250 0:10)",
    "Pain Down": "통증",
    "Pain Up": "고통",
    "Part ways": "부분 방법",
    "Party": "파티",
    "Pass 1 hour": "1 시간 통과",
    "Pass 12 hours": "12 시간 통과",
    "Pass 18 hours": "18 시간 통과",
    "Pass 20 minutes": "20 분 통과",
    "Pass 23 hours": "23 시간 통과",
    "Pass 24 hours": "24 시간 통과",
    "Pass 3 hours": "3 시간 통과",
    "Pass 6 hours": "6 시간 통과",
    "Pass on the hacker's message": "해커의 메시지 전달",
    "Pass the controller back": "컨트롤러를 다시 전달",
    "Pat and depart": "팻 앤 출발",
    "Paw back": "뒤로 발",
    "Pay (£10)": "지불 (£ 10)",
    "Pay (£1000)": "지불 (£ 1000)",
    "Pay for spring (£6000)": "봄에 지불 (£ 6000)",
    "Pay with money": "돈으로 지불",
    "Pay with your body": "몸으로 지불",
    "Peek": "몰래 엿보다",
    "Peek behind the curtain": "커튼 뒤 엿보기",
    "Penis": "음경",
    "Penis Inspection": "음경 검사",
    "Penis Parasite": "남근 기생충",
    "Penis down": "페니스 다운",
    "Penis up": "페니스 업",
    "Perform": "행하다",
    "Persecute (0:05)": "박해 (0:05)",
    "Persecute Robin": "로빈 박해",
    "Pet shop (0:01)": "펫샵 (0:01)",
    "Pet them lewdly": "음란하게 귀여워",
    "Physique": "체",
    "Pick lock (0:05)": "픽 잠금 (0:05)",
    "Pick the door (0:10)": "문 선택 (0:10)",
    "Pick the lock": "자물쇠 선택",
    "Pig": "돼지",
    "Pity fuck": "동정 씨발",
    "Play (0:20)": "재생 (0:20)",
    "Play (1:00)": "재생 (1:00)",
    "Play a game (0:15)": "게임하기 (0:15)",
    "Play with Robin (0:30)": "Robin과 함께 플레이 (0:30)",
    "Plead with them": "그들과 함께 기쁘게",
    "Point at a customer": "고객을 가리킨다",
    "Point at the actor": "배우를 가리킨다",
    "Police Pillory Start": "경찰 약탈 시작",
    "Polite": "공손한",
    "Pose": "자세",
    "Practise shooting (0:30)": "촬영 연습 (0:30)",
    "Practise swimming (0:30)": "수영 연습 (0:30)",
    "Pray": "빌다",
    "Pray (1:00)": "기도 (1:00)",
    "Pray for Salvation (1:00)": "구원을 위해기도하십시오 (1:00)",
    "Pray for a bigger penis (1:00)": "더 큰 성기를 위해기도하십시오 (1:00)",
    "Pray for a smaller penis (1:00)": "작은 성기를 위해기도하십시오 (1:00)",
    "Pray for bigger breasts (1:00)": "더 큰 가슴을 위해기도하십시오 (1:00)",
    "Pray for smaller breasts (1:00)": "더 작은 가슴을 위해기도하십시오 (1:00)",
    "Prayer Room": "기도실",
    "Pregnancy Progress Day": "임신 진행의 날",
    "Pregnancy Progress Week": "임신 진행 주간",
    "Prepare the food as instructed": "지시에 따라 음식을 준비하십시오",
    "Press 0": "0 번",
    "Press 1": "1 번",
    "Press 2": "2 번",
    "Press 3": "3 번",
    "Press 4": "4 번",
    "Press 5": "5 번",
    "Press 6": "6 번",
    "Press 7": "7 번",
    "Press 8": "8 번",
    "Press 9": "9 번",
    "Press the buzzer": "부저를 누르십시오",
    "Pretend to struggle": "투쟁하는 척",
    "Pretend you haven't noticed": "눈치 채지 못한 척",
    "Previous Tattoo": "이전 문신",
    "Private room": "사적인 방",
    "Promiscuity": "뒤범벅",
    "Propose threesome": "삼인조 제안",
    "Pub Whore": "펍 창녀",
    "Pull Alex to safety (0:15)": "Alex를 안전한 곳으로 끌어 오기 (0:15)",
    "Pull Robin away": "로빈을 잡아 당기다",
    "Pull Robin to the floor": "로빈을 바닥으로 끌어 당겨",
    "Pull away and leave": "떠나고 떠나",
    "Pull closer": "가까이 당겨",
    "Pull down Alex's shorts": "Alex의 반바지를 내리세요",
    "Pull it away": "멀리 당겨",
    "Pull the towel away": "수건을 빼내세요",
    "Pull up the initiate's skirt": "입문자의 치마를 당겨",
    "Punch the driver": "드라이버 펀치",
    "Punish": "벌하다",
    "Punish Sexually": "성적으로 처벌하다",
    "Purchase Sewing Machine - Repair your clothes in your room! £1000": "재봉틀 구입-방에서 옷을 수리하세요! 1,000 파운드",
    "Purity Down": "퓨리티 다운",
    "Push Alex onto the grass": "Alex를 잔디 위로 밀어",
    "Push Whitney's arm away": "휘트니의 팔을 밀어 내",
    "Push away again": "다시 밀어 내",
    "Push it away": "멀리 밀어",
    "Push past": "과거를 밀어",
    "Push your most expensive stock": "가장 비싼 주식을 밀어",
    "Pussy Inspection": "음모 검사",
    "Put your hand up": "손 들어",
    "Quarters": "병사",
    "RNG 1": "RNG 1",
    "RNG 100": "RNG 100",
    "RNG 11": "RNG 11",
    "RNG 21": "RNG 21",
    "RNG 31": "RNG 31",
    "RNG 41": "RNG 41",
    "RNG 51": "RNG 51",
    "RNG 61": "RNG 61",
    "RNG 71": "RNG 71",
    "RNG 81": "RNG 81",
    "RNG 91": "RNG 91",
    "Race (0:05)": "인종 (0:05)",
    "Raise your price": "가격 인상",
    "Rape Me": "강간",
    "Reach in": "도달하다",
    "Reassure": "안심",
    "Reassure Robin": "안심 로빈",
    "Reciprocate": "보답",
    "Red": "빨간",
    "Reel them back by flaunting your body": "당신의 몸을 과시하여 그들을 되돌려 놓으십시오.",
    "Reel them back by revealing your lack of clothing": "당신의 옷 부족을 드러내 서 그들을 되돌려 놓으십시오.",
    "Reel them back with a flirt": "바람둥이로 그들을 뒤로 감아",
    "Reel them back with a kiss": "키스로 그들을 되 돌려줘",
    "Refuse (1:00)": "거절 (1:00)",
    "Refuse Whitney": "휘트니 거부",
    "Refuse and leave": "거절하고 떠나",
    "Refuse examination": "검사 거부",
    "Refuse to budge": "움직이기 거부",
    "Refuse to take the box": "상자 가져 가기를 거부",
    "Relax": "편하게 하다",
    "Relax in the spring (0:30)": "봄 휴식 (0:30)",
    "Release the initiate": "시작 해제",
    "Reluctantly comply": "마지 못해 준수",
    "Reluctantly get in": "마지 못해 들어가다",
    "Reluctantly offer your body": "마지 못해 몸을 제공",
    "Reluctantly offer your body in return for letting you go": "당신을 놓아 준 대가로 마지 못해 당신의 몸을 제공하십시오",
    "Remain naked and ask for a fresh one": "알몸으로 유지하고 새로운 것을 요청하십시오.",
    "Remove": "풀다",
    "Remove all the parasites they can": "그들이 할 수있는 모든 기생충을 제거하십시오",
    "Remove ass parasite": "엉덩이 기생충 제거",
    "Remove clit parasite": "clit 기생충 제거",
    "Remove nipple parasite": "젖꼭지 기생충 제거",
    "Remove penis parasite": "음경 기생충 제거",
    "Remove the gag": "개그 제거",
    "Remove the weeds (3:00)": "잡초 제거 (3:00)",
    "Remove your Undies": "속옷 제거",
    "Remove your bottoms": "바닥을 제거하십시오",
    "Remy's Farm": "레미의 농장",
    "Repair Pregnancy Objects": "임신 개체 복구",
    "Repair the perimeter (0:20)": "경계 수리 (0:20)",
    "Replace selected babies": "선택한 아기 바꾸기",
    "Replace selected parasites": "선택한 기생충 교체",
    "Request forgiveness": "용서를 구하십시오",
    "Request head pats": "머리 두드리기 요청",
    "Request headpats (0:20)": "헤드 팟 요청 (0:20)",
    "Resentfully go with Whitney": "분개하게 휘트니와 함께",
    "Reset": "초기화",
    "Reset Overwrite": "덮어 쓰기 재설정",
    "Reset Pregnancy Objects": "임신 개체 재설정",
    "Reset selected to default": "선택한 항목을 기본값으로 재설정",
    "Rest": "쉬다",
    "Retrieve lichen for your science project": "과학 프로젝트를위한 이끼 검색",
    "Retrieve scroll": "스크롤 검색",
    "Return": "반환",
    "Return ": "반환",
    "Return Kisses": "리턴 키스",
    "Return clothes": "옷 반환",
    "Return the favour": "호의를 돌려라",
    "Return the towel": "수건 반환",
    "Return to work": "직장 복귀",
    "Reward with kiss": "키스로 보상",
    "Reward with lewd": "음란 한 보상",
    "Ride for cover": "엄폐물 타기",
    "Right": "권리",
    "Rinse mouth (0:05)": "입 헹구기 (0:05)",
    "Risk the sack and retrieve your bottoms": "자루를 위험에 빠뜨리고 바닥을 되 찾으십시오.",
    "Roar": "노호",
    "Rob": "Rob",
    "Rob them": "털다",
    "Robin Love": "로빈 러브",
    "Robin Note": "로빈 노트",
    "Robin Romance": "로빈 로맨스",
    "Robin Sex Start": "로빈 섹스 시작",
    "Roleplay gangbang": "Roleplay 윤간",
    "Romance": "로맨스",
    "Roof": "지붕",
    "Roof (0:02)": "지붕 (0:02)",
    "Rub back": "다시 문질러",
    "Ruin Fish": "폐허 물고기",
    "Run (0:01)": "실행 (0:01)",
    "Run back to the park": "공원으로 돌아가",
    "Run for the door": "문을 향해 달려",
    "Safe word": "안전한 단어",
    "Save them for someone else": "다른 사람을 위해 저장",
    "Say you were harassed by a member of the church (0:05)": "교회 회원에게 괴롭힘을 당했다고 가정 해 보겠습니다 (0:05).",
    "Say you were harassed by members of the church (0:05)": "교회 성도들에게 괴롭힘을 당했다고 가정 해보십시오 (0:05).",
    "Say you'll be okay": "괜찮을 거라고 말해",
    "Say you're fine": "괜찮다고 말해",
    "Say you're finished": "끝났다고 말해",
    "Say you're okay": "괜찮다고 말해",
    "Scare the passengers": "승객을 놀라게",
    "School Marks": "학교 마크",
    "Science Class Exposure": "과학 수업 노출",
    "Science Worms": "과학 벌레",
    "Scold (0:10)": "꾸짖다 (0:10)",
    "Scream": "비명",
    "Sea Eels": "바다 장어",
    "Search": "검색",
    "Search carefully for a way out": "탈출구를 신중하게 검색하십시오.",
    "Search cart (0:01)": "장바구니 검색 (0:01)",
    "Search for Landry's black box": "Landry의 블랙 박스 검색",
    "Search for lichen (0:30)": "이끼 검색 (0:30)",
    "Search for seeds (0:30)": "씨앗 검색 (0:30)",
    "Search for something to cover with": "다룰 내용 검색",
    "Search pots": "냄비 검색",
    "Secret tunnel to school (0:05)": "학교로가는 비밀 터널 (0:05)",
    "Seduce and deceive": "유혹하고 속이다",
    "Seduce the assailant to save Darryl": "가해자를 유혹하여 Darryl을 구하십시오.",
    "Seize the initiative": "주도권 확보",
    "Set up a show": "쇼 설정",
    "Sex Me": "섹스 나",
    "Share the money with your colleagues": "동료들과 돈을 나누세요",
    "Share yourself with both": "둘 다 자신을 공유하십시오",
    "Shield yourself with a potted plant": "화분으로 몸을 보호하세요",
    "Shore (0:02)": "해안 (0:02)",
    "Shove Avery": "에이버리를 밀어",
    "Shove Eden off": "에덴을 밀어 내",
    "Shove away": "멀리 밀어",
    "Show": "보여 주다",
    "Show everything": "모두 표시",
    "Show them everything": "그들에게 모든 것을 보여줘",
    "Show them yours": "그들에게 당신의 것을 보여주세요",
    "Show yourself": "자신을 보여",
    "Showboat your skills in front of less experienced students": "경험이 적은 학생들 앞에서 실력을 보여주세요",
    "Shower (0:20)": "샤워 (0:20)",
    "Shuffle out and be on your way": "셔플하고 당신의 길을 가십시오",
    "Sit on the plinth": "주각에 앉아",
    "Skulduggery": "Skulduggery",
    "Slack (1:00)": "여유 (1:00)",
    "Slink away": "슬링 어웨이",
    "Slip under the table": "테이블 아래로 미끄러 져",
    "Smack": "헤로인",
    "Smack the hand away": "손 치워",
    "Smash it": "박살 내",
    "Smooch": "스무 치",
    "Snap out of it": "그것의 스냅",
    "Sneak closer for a look": "자세히 살펴보기",
    "Sneak inside (1:00)": "안으로 몰래 들어가기 (1:00)",
    "Sneak into the barn (0:05)": "헛간에 잠입 (0:05)",
    "Sneak out": "몰래 빠져 나가",
    "Solicit": "간청",
    "Something deviant": "비정상적인 것",
    "Something lewd": "음란 한 것",
    "Something normal": "정상적인 것",
    "Soothe": "달래다",
    "South to campsite (0:20)": "남쪽에서 캠프장까지 (0:20)",
    "South to fishing rock (0:10)": "남쪽에서 낚시 바위까지 (0:10)",
    "South to shore (0:10)": "남쪽에서 해안으로 (0:10)",
    "South to waterfall (0:10)": "남쪽에서 폭포까지 (0:10)",
    "Spit in the eggs": "계란에 뱉어",
    "Spy on Alex (0:20)": "알렉스 스파이 (0:20)",
    "Spy on them": "그들에 대한 스파이",
    "Squeeze through": "짜내다",
    "Squeeze through the hole (0:01)": "구멍을 꽉 쥐기 (0:01)",
    "Staff door": "직원 문",
    "Stand beneath": "아래에 서십시오",
    "Stand with Alex": "알렉스와 함께",
    "Star in show": "쇼에서 스타",
    "Stare": "응시",
    "Start Robin Event": "로빈 이벤트 시작",
    "Stats Up": "통계",
    "Status": "상태",
    "Status Down": "상태 다운",
    "Stay": "머무르다",
    "Stay close to Eden": "에덴에 가까이있어",
    "Stay covered": "보호 유지",
    "Stay hidden": "숨겨진 상태 유지",
    "Stay in the spring": "봄에 머물다",
    "Stay in the spring (0:30)": "봄에 머물러 라 (0:30)",
    "Stay out of it": "그만둬",
    "Stay put (0:30)": "그대로 유지 (0:30)",
    "Stay put and keep low": "가만히 있고 낮게 유지",
    "Stay quiet": "조용히",
    "Stay still": "여전히 유지",
    "Steady yourself until the feeling subsides (0:30)": "기분이 가라 앉을 때까지 몸을 가라 앉혀 라 (0:30)",
    "Steal Access card": "액세스 카드 훔치기",
    "Steal Camera": "카메라 훔치기",
    "Steal Her Clothes": "그녀의 옷을 훔쳐",
    "Steal and take home": "훔치고 집으로 가져 가기",
    "Steal and wear": "도둑질과 착용",
    "Steal camera": "카메라 훔치기",
    "Steal equipment and escape": "장비를 훔치고 탈출",
    "Steal habit": "습관 훔치기",
    "Steal the glowing object": "빛나는 물체를 훔쳐",
    "Stick to the trail": "트레일에 충실",
    "Still your thoughts (1:00)": "아직도 너의 생각 (1:00)",
    "Stop Being Alluring": "유혹을 그만둬",
    "Stop and Pose": "중지 및 포즈",
    "Stop and Pose Lewdly": "멈춰서 음란하게 포즈",
    "Stop hugging": "포옹 그만해",
    "Straighten yourself up": "똑바로",
    "Strange Shop": "이상한 가게",
    "Street Police Extreme": "거리 경찰 익스트림",
    "Stress": "스트레스",
    "Strip Club": "스트립 클럽",
    "Strip Willingly": "기꺼이 벗기다",
    "Strip and flaunt": "스트립 및 과시",
    "Strip and get in (0:30)": "벗기고 들어가기 (0:30)",
    "Strip and join them": "스트립 및 결합",
    "Strip and work": "스트립 및 작업",
    "Strip as you are and put them on": "그대로 벗기고 착용",
    "Strip down to your dance clothes": "댄스 복을 입고",
    "Strip in the alley and put them on": "골목을 벗겨서 입어",
    "Strip reluctantly": "마지 못해 벗기기",
    "Strip them": "스트립",
    "Strip to undies": "속옷에 스트립",
    "Stroke": "뇌졸중",
    "Struggle (0:30)": "투쟁 (0:30)",
    "Struggle free": "자유로운 투쟁",
    "Stuck-up": "갇혀",
    "Submission": "제출",
    "Submit willingly": "기꺼이 제출",
    "Sunlight": "햇빛",
    "Super Punch": "슈퍼 펀치",
    "Super Stroke": "슈퍼 스트로크",
    "Superhero": "슈퍼 히어로",
    "Surface": "표면",
    "Surrender your clothes": "옷을 내 어줘",
    "Swallow": "제비",
    "Swarm": "군단",
    "Swim deeper": "더 깊이 수영",
    "Swim inside plinth room": "주 각실 내부 수영",
    "Swim inside ruin": "폐허 속으로 수영",
    "Swim out to Mason (0:05)": "메이슨으로 수영하기 (0:05)",
    "Swim out to sea (0:10)": "바다로 수영하기 (0:10)",
    "Swim outside": "밖에 수영",
    "Swim to the cliffs": "절벽으로 수영",
    "Swim to the cliffs (0:10)": "절벽으로 수영하기 (0:10)",
    "Swim to the docks": "부두로 수영",
    "Swim to the docks (0:10)": "부두로 수영 (0:10)",
    "Swim to the rocks": "바위로 수영",
    "Swim to the rocks (0:10)": "바위로 수영하기 (0:10)",
    "Swim towards exit": "출구쪽으로 수영",
    "Swim towards shore (0:12)": "해안을 향해 수영 (0:12)",
    "Swimming Skill": "수영 기술",
    "Tailor Shop (0:01)": "재단사 (0:01)",
    "Take": "갖다",
    "Take Avery's hand": "에이버리의 손을 잡아",
    "Take Bottles": "병 가져가",
    "Take It": "가져",
    "Take Robin to the hospital (1:00)": "로빈을 병원으로 데려 가기 (1:00)",
    "Take a Detour": "우회하기",
    "Take a detour (0:30)": "우회하기 (0:30)",
    "Take a stroll (1:00)": "산책 (1:00)",
    "Take advantage": "이용하다",
    "Take control (0:10)": "제어권 확보 (0:10)",
    "Take for science project": "과학 프로젝트에 참여",
    "Take for the orphanage": "고아원을 위해",
    "Take in hand": "손 잡고",
    "Take in mouth": "입에",
    "Take it further": "더 나아가",
    "Take it in hand": "손에 들고",
    "Take it up a notch": "한 단계 업그레이드",
    "Take job (0:30)": "취직 (0:30)",
    "Take measurement": "측정하기",
    "Take money and Leave (£60)": "돈을 받고 떠나기 (£ 60)",
    "Take nothing": "아무것도 가져가",
    "Take off your top": "당신의 탑을 벗으십시오",
    "Take on Robin's debt": "로빈의 빚을지고",
    "Take pink mushroom": "분홍색 버섯을",
    "Take red mushroom": "빨간 버섯을",
    "Take secret path deeper into the woods (0:10)": "숲 속으로 더 깊은 비밀의 길을 가십시오 (0:10)",
    "Take secret path out of the woods (0:10)": "숲에서 비밀의 길을 걷다 (0:10)",
    "Take the box and walk away": "상자를 가지고 가세요",
    "Take the candlestick": "촛대 가져가",
    "Take the crystal": "크리스탈 가져가",
    "Take the cylinder": "실린더 가져가",
    "Take the lead": "우위",
    "Take the money for yourself": "스스로 돈을 가져 가세요",
    "Take the towels": "수건 가져가",
    "Take their hand": "손을 잡아",
    "Take them": "가져가",
    "Take them and leave": "그들을 데리고 떠나",
    "Take to train station": "기차역으로 이동",
    "Tear through": "찢어",
    "Tell": "텔",
    "Tell Darryl": "대릴에게",
    "Tell Kylar to go away": "Kylar에게 가라고 말해",
    "Tell them to leave": "떠나라고 말해줘",
    "Tell your steed to stop": "그만하라고 말하세요",
    "Temple Initiate": "사원 입문",
    "Tentacle Rape Me": "촉수 강간",
    "Test": "테스트",
    "Throw Whitney off": "휘트니를 던져",
    "Throw it away": "멀리 던져",
    "Throw the camera": "카메라를 던져",
    "Tickle attack": "간질 공격",
    "Timer": "시간제 노동자",
    "Timidly": "소심하게",
    "Touch back": "다시 터치",
    "Towels Please": "수건주세요",
    "Trash Maggots": "쓰레기 구더기",
    "Traumatise me": "날 트라우마",
    "Trial by Fire (1:00)": "불의 시험 (1:00)",
    "Trick Bailey": "트릭 베일리",
    "Trust me": "날 믿어",
    "Try again": "다시 시도하십시오",
    "Try and back out": "시도하고 다시",
    "Try not to think lewd thoughts": "음란 한 생각을하지 마십시오",
    "Try the gate (0:05)": "게이트 시도 (0:05)",
    "Try to befriend it": "친구가 되세요",
    "Try to bluff your way out": "당신의 탈출구를 허세 부리려고",
    "Try to calm it": "진정 해봐",
    "Try to catch them (0:05)": "그들을 잡아보세요 (0:05)",
    "Try to escape": "탈출하려고",
    "Try to help": "도와주세요",
    "Try to negotiate while being fondled": "애무하면서 협상을 시도하십시오",
    "Try to reassure": "안심 시키십시오",
    "Try to regain balance": "균형을 되 찾으십시오",
    "Try to say stop": "중지라고 말해보세요",
    "Try to sneak in through the back door": "뒷문으로 몰래 들어 가려고",
    "Try to stop them": "그들을 막으려 고",
    "Try to talk": "말하려고",
    "Try to turn it up (1:00)": "올려봐 (1:00)",
    "Tunnel covered in webs (0:05)": "웹으로 덮인 터널 (0:05)",
    "Tunnel filled with litter (0:05)": "쓰레기로 가득 찬 터널 (0:05)",
    "Tunnel filled with sculptures (0:05)": "조각품이 가득한 터널 (0:05)",
    "Tunnel filled with wood (0:05)": "나무로 가득 찬 터널 (0:05)",
    "Turn away": "돌아서",
    "UnBind": "언 바인드",
    "Undertemp off": "온도 부족",
    "Undress": "평복",
    "Update Overwrite": "덮어 쓰기 업데이트",
    "Virginity Test": "처녀성 테스트",
    "Virginity test (0:05)": "처녀성 테스트 (0:05)",
    "Walk carefully": "조심스럽게 걸어",
    "Walk over": "걸어가",
    "Walk past": "지나서 걷기",
    "Walk through": "안내",
    "Wave (0:01)": "웨이브 (0:01)",
    "Wave back and continue on": "뒤로 물러서서 계속",
    "Wave goodbye": "손을 흔들며 인사하다",
    "Wave security away": "보안을 멀리하십시오",
    "Wave the bouncers away": "경비원을 멀리 흔들어",
    "Whitney Love": "휘트니 러브",
    "Whitney Lower Dominance": "휘트니 로어 도미 넌스",
    "Whitney Raise Dominance": "휘트니 레이즈 우위",
    "Whitney Romance": "휘트니 로맨스",
    "Wolf Pack": "늑대 팩",
    "Wolf build down": "늑대 빌드 다운",
    "Wolf build up": "늑대 빌드 업",
    "Wolf off": "늑대 끄기",
    "Wolf up": "늑대",
    "Write": "쓰다",
    "X 5": "X5",
    "Yeah, fully paid. (Take nothing and Leave)": "예, 전액 지불했습니다. (아무것도 취하지 않고 떠나십시오)",
    "swimshorts": "수영복",
    "test": "테스트",
    "£100": "£ 100",
    "£150": "£ 150",
    "£200": "200 파운드",
    "£400": "£ 400",
    "£50": "£ 50",
    "£500": "£ 500"
}